{
	"selection": [
		{
			"order": 99,
			"prevSize": 32,
			"name": "promise_icon_parking01"
		},
		{
			"order": 98,
			"prevSize": 32,
			"name": "promise_icon_wifi01"
		},
		{
			"order": 97,
			"prevSize": 32,
			"name": "promise_icon_map04"
		},
		{
			"order": 96,
			"prevSize": 32,
			"name": "promise_icon_menu02"
		},
		{
			"order": 95,
			"prevSize": 32,
			"name": "promise_icon_train01"
		},
		{
			"order": 94,
			"prevSize": 32,
			"name": "promise_icon_yen11"
		},
		{
			"order": 90,
			"prevSize": 32,
			"name": "promise_icon_yen12"
		},
		{
			"order": 88,
			"prevSize": 32,
			"name": "promise_icon_pt02"
		},
		{
			"order": 87,
			"prevSize": 32,
			"name": "promise_icon_fp01"
		},
		{
			"order": 86,
			"prevSize": 32,
			"name": "promise_icon_phone03"
		},
		{
			"order": 85,
			"prevSize": 32,
			"name": "promise_icon_yen10"
		},
		{
			"order": 84,
			"prevSize": 32,
			"name": "promise_icon_atm02"
		},
		{
			"order": 82,
			"prevSize": 32,
			"name": "promise_icon_blnq01"
		},
		{
			"order": 83,
			"prevSize": 32,
			"name": "promise_icon_blna01"
		},
		{
			"order": 81,
			"prevSize": 32,
			"name": "promise_icon_lady01"
		},
		{
			"order": 80,
			"prevSize": 32,
			"name": "promise_icon_clock03"
		},
		{
			"order": 79,
			"prevSize": 32,
			"name": "promise_icon_clock02"
		},
		{
			"order": 78,
			"prevSize": 32,
			"name": "promise_icon_clock01"
		},
		{
			"order": 77,
			"prevSize": 32,
			"name": "promise_icon_map03"
		},
		{
			"order": 76,
			"prevSize": 32,
			"name": "promise_icon_map02"
		},
		{
			"order": 75,
			"prevSize": 32,
			"name": "promise_icon_map01"
		},
		{
			"order": 74,
			"prevSize": 32,
			"name": "promise_icon_yen09"
		},
		{
			"order": 73,
			"prevSize": 32,
			"name": "promise_icon_atm01"
		},
		{
			"order": 72,
			"prevSize": 32,
			"name": "promise_icon_shop04"
		},
		{
			"order": 71,
			"prevSize": 32,
			"name": "promise_icon_fax01"
		},
		{
			"order": 69,
			"prevSize": 32,
			"name": "promise_icon_shop03"
		},
		{
			"order": 66,
			"prevSize": 32,
			"name": "promise_icon_machine01"
		},
		{
			"order": 67,
			"prevSize": 32,
			"name": "promise_icon_postal01"
		},
		{
			"order": 68,
			"prevSize": 32,
			"name": "promise_icon_sp01"
		},
		{
			"order": 65,
			"prevSize": 32,
			"name": "promise_icon_upload01"
		},
		{
			"order": 64,
			"prevSize": 32,
			"name": "promise_icon_check03"
		},
		{
			"order": 63,
			"prevSize": 32,
			"name": "promise_icon_phone02"
		},
		{
			"order": 62,
			"prevSize": 32,
			"name": "promise_icon_yen07"
		},
		{
			"order": 61,
			"prevSize": 32,
			"name": "promise_icon_yen08"
		},
		{
			"order": 60,
			"prevSize": 32,
			"name": "promise_icon_shop02"
		},
		{
			"order": 56,
			"prevSize": 32,
			"name": "promise_icon_phone01"
		},
		{
			"order": 52,
			"prevSize": 32,
			"name": "promise_icon_qt02"
		},
		{
			"order": 51,
			"prevSize": 32,
			"name": "promise_icon_star01"
		},
		{
			"order": 50,
			"prevSize": 32,
			"name": "promise_icon_beginner01"
		},
		{
			"order": 49,
			"prevSize": 32,
			"name": "promise_icon_check02"
		},
		{
			"order": 48,
			"prevSize": 32,
			"name": "promise_icon_man02"
		},
		{
			"order": 47,
			"prevSize": 32,
			"name": "promise_icon_shop01"
		},
		{
			"order": 46,
			"prevSize": 32,
			"name": "promise_icon_yen06"
		},
		{
			"order": 45,
			"prevSize": 32,
			"name": "promise_icon_note01"
		},
		{
			"order": 44,
			"prevSize": 32,
			"name": "promise_icon_yen04"
		},
		{
			"order": 43,
			"prevSize": 32,
			"name": "promise_icon_yen05"
		},
		{
			"order": 42,
			"prevSize": 32,
			"name": "promise_icon_doc03"
		},
		{
			"order": 41,
			"prevSize": 32,
			"name": "promise_icon_hand01"
		},
		{
			"order": 40,
			"prevSize": 32,
			"name": "promise_icon_pen02"
		},
		{
			"order": 39,
			"prevSize": 32,
			"name": "promise_icon_search01"
		},
		{
			"order": 38,
			"prevSize": 32,
			"name": "promise_icon_close01"
		},
		{
			"order": 37,
			"prevSize": 32,
			"name": "promise_icon_menu01"
		},
		{
			"order": 36,
			"prevSize": 32,
			"name": "promise_icon_arw03l"
		},
		{
			"order": 35,
			"prevSize": 32,
			"name": "promise_icon_arw03b"
		},
		{
			"order": 34,
			"prevSize": 32,
			"name": "promise_icon_arw03r"
		},
		{
			"order": 33,
			"prevSize": 32,
			"name": "promise_icon_arw03u"
		},
		{
			"order": 32,
			"prevSize": 32,
			"name": "promise_icon_arw01u"
		},
		{
			"order": 31,
			"prevSize": 32,
			"name": "promise_icon_arw01r"
		},
		{
			"order": 30,
			"prevSize": 32,
			"name": "promise_icon_arw01l"
		},
		{
			"order": 29,
			"prevSize": 32,
			"name": "promise_icon_arw01b"
		},
		{
			"order": 28,
			"prevSize": 32,
			"name": "promise_icon_arw02u"
		},
		{
			"order": 27,
			"prevSize": 32,
			"name": "promise_icon_arw02r"
		},
		{
			"order": 26,
			"prevSize": 32,
			"name": "promise_icon_arw02b"
		},
		{
			"order": 25,
			"prevSize": 32,
			"name": "promise_icon_arw02l"
		},
		{
			"order": 24,
			"prevSize": 32,
			"name": "promise_icon_plus01"
		},
		{
			"order": 23,
			"prevSize": 32,
			"name": "promise_icon_plus02"
		},
		{
			"order": 22,
			"prevSize": 32,
			"name": "promise_icon_minus01"
		},
		{
			"order": 21,
			"prevSize": 32,
			"name": "promise_icon_minus02"
		},
		{
			"order": 20,
			"prevSize": 32,
			"name": "promise_icon_yen01"
		},
		{
			"order": 19,
			"prevSize": 32,
			"name": "promise_icon_yen02"
		},
		{
			"order": 18,
			"prevSize": 32,
			"name": "promise_icon_yen03"
		},
		{
			"order": 17,
			"prevSize": 32,
			"name": "promise_icon_0yen"
		},
		{
			"order": 16,
			"prevSize": 32,
			"name": "promise_icon_ex01"
		},
		{
			"order": 15,
			"prevSize": 32,
			"name": "promise_icon_pt01"
		},
		{
			"order": 14,
			"prevSize": 32,
			"name": "promise_icon_qt01"
		},
		{
			"order": 13,
			"prevSize": 32,
			"name": "promise_icon_shield01"
		},
		{
			"order": 12,
			"prevSize": 32,
			"name": "promise_icon_cal01"
		},
		{
			"order": 11,
			"prevSize": 32,
			"name": "promise_icon_check01"
		},
		{
			"order": 10,
			"prevSize": 32,
			"name": "promise_icon_doc01"
		},
		{
			"order": 9,
			"prevSize": 32,
			"name": "promise_icon_doc02"
		},
		{
			"order": 8,
			"prevSize": 32,
			"name": "promise_icon_lock01"
		},
		{
			"order": 7,
			"prevSize": 32,
			"name": "promise_icon_lock02"
		},
		{
			"order": 6,
			"prevSize": 32,
			"name": "promise_icon_mail01"
		},
		{
			"order": 5,
			"prevSize": 32,
			"name": "promise_icon_pc01"
		},
		{
			"order": 4,
			"prevSize": 32,
			"name": "promise_icon_pen01"
		},
		{
			"order": 3,
			"prevSize": 32,
			"name": "promise_icon_window01"
		},
		{
			"order": 2,
			"prevSize": 32,
			"name": "promise_icon_man01"
		},
		{
			"order": 1,
			"prevSize": 32,
			"name": "promise_icon_woman01"
		}
	],
	"metadata": {
		"name": "Untitled Set",
		"importSize": {
			"width": 34,
			"height": 34
		},
		"iconsHash": 1000218597
	},
	"height": 1024,
	"prevSize": 32,
	"icons": [
		{
			"paths": [
				"M545.129 391.529h-87.341v123.482h87.341c21.082 0 36.141-6.024 48.188-15.059 12.047-12.047 18.071-27.106 18.071-48.188 0-18.071-6.024-33.129-15.059-45.176-9.035-9.035-27.106-15.059-51.2-15.059zM789.082 84.329h-554.165c-84.329 0-150.588 69.271-150.588 150.588v551.153c0 84.329 66.259 150.588 150.588 150.588h551.153c84.329 0 150.588-66.259 150.588-150.588v-551.153c3.012-81.318-66.259-150.588-147.576-150.588zM662.588 548.141c-27.106 27.106-63.247 39.153-114.447 39.153h-90.353v75.294c0 30.118 0 54.212 3.012 72.282h-93.365c3.012-18.071 3.012-42.165 3.012-69.271v-277.082c0-27.106-3.012-51.2-3.012-69.271 21.082 0 42.165 0 69.271 0h108.424c51.2 0 90.353 12.047 114.447 39.153 21.082 21.082 33.129 54.212 33.129 93.365 6.024 39.153-6.024 72.282-30.118 96.376z"
			],
			"grid": 0,
			"tags": [
				"promise_icon_parking01"
			],
			"defaultCode": 59731
		},
		{
			"paths": [
				"M614.4 734.871c0 54.212-45.176 99.388-99.388 99.388s-99.388-45.176-99.388-99.388c0-54.212 45.176-99.388 99.388-99.388 54.212-3.012 99.388 42.165 99.388 99.388v0zM614.4 734.871z",
				"M752.941 493.929c0-3.012-3.012-3.012-6.024-3.012l-3.012-3.012c0 0-3.012 0-3.012-3.012-129.506-117.459-325.271-111.435-448.753 9.035l-36.141 36.141c-24.094 24.094-24.094 63.247 0 87.341s63.247 24.094 87.341 0l33.129-33.129c78.306-78.306 204.8-78.306 283.106 0l24.094 24.094c24.094 24.094 63.247 24.094 87.341 0 12.047-12.047 18.071-27.106 18.071-45.176 0-15.059-6.024-33.129-18.071-45.176l-18.071-24.094zM752.941 493.929z",
				"M921.6 370.447l-21.082-21.082c0 0 0 0 0 0l-15.059-18.071c-3.012-3.012-6.024-6.024-9.035-6.024-210.824-183.718-530.071-177.694-734.871 18.071 0 0-3.012 3.012-3.012 3.012l-36.141 36.141c-21.082 21.082-21.082 57.224 0 81.318 21.082 21.082 57.224 21.082 81.318 0l36.141-36.141c0 0 0 0 0 0 165.647-162.635 427.671-162.635 593.318-6.024l30.118 30.118c21.082 21.082 57.224 21.082 81.318 0 21.082-24.094 21.082-60.235-3.012-81.318v0zM921.6 370.447z"
			],
			"grid": 0,
			"tags": [
				"promise_icon_wifi01"
			],
			"defaultCode": 59732
		},
		{
			"paths": [
				"M84.329 370.447v457.788c0 12.047 6.024 21.082 18.071 24.094l195.765 66.259v-512l-180.706-60.235c-15.059-6.024-33.129 6.024-33.129 24.094v0zM84.329 370.447z",
				"M752.941 581.271c-6.024 9.035-18.071 12.047-27.106 15.059v249.976l180.706 60.235c18.071 6.024 33.129-6.024 33.129-24.094v-457.788c0-12.047-6.024-21.082-18.071-24.094l-36.141-12.047c-9.035 24.094-21.082 48.188-39.153 75.294-24.094 36.141-57.224 78.306-93.365 117.459v0zM752.941 581.271z",
				"M593.318 581.271c-36.141-39.153-66.259-78.306-90.353-114.447-18.071-30.118-33.129-54.212-42.165-78.306l-57.224 18.071v512l213.835-72.282v-249.976c-9.035-3.012-18.071-9.035-24.094-15.059v0zM593.318 581.271z",
				"M671.624 105.412v0c-87.341 0-159.624 69.271-159.624 156.612 0 15.059 0 30.118 6.024 42.165 0 6.024 3.012 15.059 6.024 24.094 15.059 42.165 39.153 78.306 66.259 111.435 18.071 21.082 51.2 81.318 84.329 81.318s72.282-66.259 90.353-90.353c24.094-33.129 45.176-66.259 60.235-102.4 3.012-9.035 6.024-18.071 6.024-24.094 3.012-12.047 6.024-24.094 6.024-39.153-6.024-87.341-75.294-159.624-165.647-159.624v0zM686.682 346.353c-6.024 0-9.035 0-15.059 0s-9.035 0-15.059 0c-24.094-6.024-45.176-21.082-57.224-42.165-6.024-12.047-9.035-27.106-9.035-42.165 0-45.176 39.153-84.329 84.329-84.329s84.329 39.153 84.329 84.329c0 15.059-3.012 30.118-12.047 42.165-12.047 21.082-36.141 36.141-60.235 42.165v0zM686.682 346.353z"
			],
			"grid": 0,
			"tags": [
				"promise_icon_map04"
			],
			"defaultCode": 59733
		},
		{
			"paths": [
				"M277.082 219.859c0 51.2-42.165 96.376-96.376 96.376s-96.376-42.165-96.376-96.376c0-51.2 42.165-96.376 96.376-96.376s96.376 42.165 96.376 96.376v0zM277.082 219.859z",
				"M277.082 512c0 54.212-42.165 96.376-96.376 96.376s-96.376-42.165-96.376-96.376c0-51.2 42.165-96.376 96.376-96.376s96.376 45.176 96.376 96.376v0zM277.082 512z",
				"M277.082 804.141c0 54.212-42.165 96.376-96.376 96.376s-96.376-42.165-96.376-96.376 42.165-96.376 96.376-96.376c54.212 3.012 96.376 45.176 96.376 96.376v0zM277.082 804.141z",
				"M927.624 135.529h-566.212c-6.024 0-12.047 6.024-12.047 12.047v141.553c0 6.024 6.024 12.047 12.047 12.047h563.2c6.024 0 12.047-6.024 12.047-12.047v-141.553c3.012-6.024-3.012-12.047-9.035-12.047v0zM927.624 135.529z",
				"M927.624 427.671h-566.212c-6.024 0-12.047 6.024-12.047 12.047v141.553c0 6.024 6.024 12.047 12.047 12.047h563.2c6.024 0 12.047-6.024 12.047-12.047v-141.553c3.012-6.024-3.012-12.047-9.035-12.047v0zM927.624 427.671z",
				"M927.624 722.824h-566.212c-6.024 0-12.047 6.024-12.047 12.047v141.553c0 6.024 6.024 12.047 12.047 12.047h563.2c6.024 0 12.047-6.024 12.047-12.047v-141.553c3.012-9.035-3.012-12.047-9.035-12.047v0zM927.624 722.824z"
			],
			"grid": 0,
			"tags": [
				"promise_icon_menu02"
			],
			"defaultCode": 59734
		},
		{
			"paths": [
				"M512 84.329c-198.776 0-358.4 21.082-358.4 180.706v427.671c0 84.329 72.282 156.612 156.612 156.612l-66.259 66.259v21.082h539.106v-21.082l-66.259-66.259c84.329 0 156.612-72.282 156.612-156.612v-427.671c-3.012-156.612-162.635-180.706-361.412-180.706v0zM310.212 758.965c-36.141 0-66.259-30.118-66.259-66.259s30.118-66.259 66.259-66.259 66.259 30.118 66.259 66.259-30.118 66.259-66.259 66.259v0zM466.824 490.918h-222.871v-225.882h225.882v225.882zM713.788 758.965c-36.141 0-66.259-30.118-66.259-66.259s30.118-66.259 66.259-66.259c36.141 0 66.259 30.118 66.259 66.259s-30.118 66.259-66.259 66.259v0zM783.059 490.918h-225.882v-225.882h225.882v225.882zM783.059 490.918z"
			],
			"grid": 0,
			"tags": [
				"promise_icon_train01"
			],
			"defaultCode": 59735
		},
		{
			"paths": [
				"M710.776 454.776c-24.094 0-48.188 3.012-69.271 12.047v-72.282h84.329v-15.059h-596.329v15.059h99.388v75.294h-99.388v15.059h469.835c-27.106 15.059-48.188 33.129-69.271 57.224h-237.929v45.176h12.047v117.459h174.682c9.035 120.471 108.424 213.835 228.894 213.835 126.494 0 231.906-102.4 231.906-231.906s-102.4-231.906-228.894-231.906zM328.282 469.835h-87.341v-75.294h87.341v75.294zM427.671 469.835h-87.341v-75.294h87.341v75.294zM527.059 469.835h-87.341v-75.294h87.341v75.294zM542.118 469.835v-75.294h87.341v75.294h-87.341zM427.671 662.588h-108.424v-75.294h108.424v75.294zM439.718 662.588v-75.294h63.247c-12.047 24.094-21.082 48.188-24.094 75.294h-39.153zM710.776 876.424c-105.412 0-189.741-84.329-189.741-189.741s84.329-189.741 189.741-189.741 189.741 84.329 189.741 189.741-84.329 189.741-189.741 189.741zM780.047 599.341l-69.271 87.341-69.271-87.341-15.059 12.047 60.235 72.282h-42.165v21.082h60.235v24.094h-60.235v21.082h60.235v60.235h21.082v-60.235h60.235v-21.082h-60.235v-24.094h60.235v-21.082h-42.165l60.235-72.282-24.094-12.047zM463.812 262.024h-24.094v-33.129h-15.059v45.176h39.153v-12.047zM427.671 331.294c39.153 0 72.282-33.129 72.282-72.282s-33.129-72.282-72.282-72.282-72.282 33.129-72.282 72.282 33.129 72.282 72.282 72.282zM427.671 198.776c33.129 0 60.235 27.106 60.235 60.235s-27.106 60.235-60.235 60.235-60.235-27.106-60.235-60.235c3.012-33.129 27.106-60.235 60.235-60.235z",
				"M304.188 105.412h-39.153v204.8h42.165v-162.635h-3.012z",
				"M551.153 105.412v204.8h39.153v-204.8z",
				"M590.306 105.412h-286.118v42.165h286.118z",
				"M129.506 662.588v-352.376h177.694v-39.153h-219.859v433.694h418.635c0-6.024 0-12.047 0-18.071 0-9.035 0-15.059 0-24.094l-376.471 0zM551.153 271.059v42.165h174.682v177.694c15.059 0 27.106 3.012 42.165 6.024v-225.882h-216.847z"
			],
			"grid": 0,
			"tags": [
				"promise_icon_yen11"
			],
			"defaultCode": 59730
		},
		{
			"paths": [
				"M397.553 379.482v36.141h96.376v36.141h-96.376v36.141h96.376v96.376h36.141v-96.376h96.376v-36.141h-96.376v-36.141h96.376v-36.141h-69.271l96.376-117.459-30.118-24.094-111.435 141.553-114.447-141.553-30.118 24.094 96.376 117.459h-66.259zM512 692.706c168.659 0 304.188-135.529 304.188-304.188s-135.529-304.188-304.188-304.188c-168.659 0-304.188 135.529-304.188 304.188s135.529 304.188 304.188 304.188zM512 123.482c147.576 0 268.047 120.471 268.047 268.047s-120.471 268.047-268.047 268.047-268.047-120.471-268.047-268.047 120.471-268.047 268.047-268.047zM271.059 939.671h39.153v-81.318h45.176v-33.129h-45.176v-39.153h54.212v-33.129h-93.365v186.729zM451.765 828.235c-24.094 0-30.118 3.012-42.165 12.047v-15.059h-30.118v111.435h30.118v-69.271c6.024-21.082 24.094-18.071 42.165-18.071v-21.082zM505.976 825.224c-18.071 0-30.118 6.024-42.165 15.059-9.035 9.035-15.059 24.094-15.059 42.165s6.024 30.118 15.059 42.165c9.035 9.035 24.094 15.059 42.165 15.059 15.059 0 27.106-3.012 36.141-9.035s15.059-18.071 18.071-27.106h-33.129c-3.012 3.012-3.012 6.024-6.024 9.035s-6.024 3.012-12.047 3.012c-6.024 0-12.047-3.012-15.059-6.024s-6.024-9.035-6.024-18.071v-3.012h75.294c0-18.071-6.024-36.141-15.059-45.176-9.035-12.047-24.094-18.071-42.165-18.071zM487.906 870.4c0-9.035 3.012-9.035 6.024-15.059s9.035-6.024 15.059-6.024c6.024 0 12.047 3.012 15.059 6.024s6.024 6.024 6.024 15.059h-42.165zM563.2 885.459v0 0c0 0 0 0 0 0zM632.471 825.224c-18.071 0-30.118 6.024-42.165 15.059-9.035 9.035-15.059 24.094-15.059 42.165s6.024 30.118 15.059 42.165c9.035 9.035 24.094 15.059 42.165 15.059 15.059 0 27.106-3.012 36.141-9.035s15.059-18.071 18.071-27.106h-33.129c-3.012 3.012-3.012 6.024-6.024 9.035s-6.024 3.012-12.047 3.012c-6.024 0-12.047-3.012-15.059-6.024s-6.024-9.035-6.024-18.071v-3.012h75.294c0-18.071-6.024-36.141-15.059-45.176-9.035-12.047-24.094-18.071-42.165-18.071zM611.388 870.4c0-9.035 3.012-9.035 6.024-15.059 3.012-3.012 9.035-6.024 15.059-6.024s12.047 3.012 15.059 6.024c3.012 3.012 6.024 6.024 6.024 15.059h-42.165zM686.682 885.459v0 0c0 0 0 0 0 0zM722.824 882.447h30.118v-126.494h-30.118v126.494zM737.882 894.494c-6.024 0-12.047 3.012-15.059 6.024s-6.024 9.035-6.024 15.059c0 6.024 3.012 12.047 6.024 15.059s9.035 6.024 15.059 6.024c6.024 0 12.047-3.012 15.059-6.024s6.024-9.035 6.024-15.059c0-6.024-3.012-12.047-6.024-15.059-3.012-6.024-9.035-6.024-15.059-6.024z"
			],
			"grid": 0,
			"tags": [
				"promise_icon_yen12"
			],
			"defaultCode": 59729
		},
		{
			"paths": [
				"M518.024 195.765c-87.341 0-168.659 36.141-225.882 96.376 30.118-9.035 63.247-15.059 99.388-15.059 192.753 0 352.376 156.612 352.376 352.376 0 33.129-6.024 66.259-15.059 99.388 60.235-57.224 96.376-135.529 96.376-225.882 3.012-168.659-135.529-307.2-307.2-307.2zM951.718 382.494c0-171.671-138.541-310.212-310.212-310.212-87.341 0-165.647 36.141-222.871 96.376 33.129-9.035 66.259-15.059 102.4-15.059 192.753 0 352.376 156.612 352.376 352.376 0 33.129-6.024 66.259-15.059 99.388 57.224-57.224 93.365-135.529 93.365-222.871zM394.541 325.271c-168.659 0-307.2 138.541-307.2 307.2s138.541 307.2 307.2 307.2 307.2-138.541 307.2-307.2-138.541-307.2-307.2-307.2zM496.941 665.6c-18.071 18.071-42.165 27.106-75.294 27.106h-60.235v51.2c0 21.082 0 36.141 3.012 48.188h-60.235c3.012-12.047 3.012-27.106 3.012-48.188v-183.718c0-18.071 0-33.129-3.012-48.188 12.047 0 30.118 0 48.188 0h69.271c33.129 0 60.235 9.035 78.306 27.106 15.059 15.059 21.082 36.141 21.082 60.235 0 27.106-9.035 51.2-24.094 66.259zM418.635 560.188h-57.224v84.329h57.224c15.059 0 24.094-3.012 33.129-12.047 9.035-6.024 12.047-18.071 12.047-30.118s-3.012-21.082-9.035-30.118c-9.035-9.035-21.082-12.047-36.141-12.047z"
			],
			"grid": 0,
			"tags": [
				"promise_icon_pt02"
			],
			"defaultCode": 59728
		},
		{
			"paths": [
				"M740.894 141.553c0-27.106-15.059-54.212-42.165-54.212h-358.4c-27.106 0-57.224 27.106-57.224 54.212v752.941c0 27.106 30.118 45.176 57.224 45.176h355.388c27.106 0 42.165-18.071 42.165-45.176v-752.941zM385.506 861.365c-21.082 0-36.141-18.071-36.141-36.141 0-21.082 18.071-36.141 36.141-36.141s36.141 18.071 36.141 36.141c3.012 18.071-15.059 36.141-36.141 36.141zM385.506 734.871c-21.082 0-36.141-18.071-36.141-36.141 0-21.082 18.071-36.141 36.141-36.141s36.141 18.071 36.141 36.141c3.012 18.071-15.059 36.141-36.141 36.141zM385.506 605.365c-21.082 0-36.141-18.071-36.141-36.141 0-21.082 18.071-36.141 36.141-36.141s36.141 18.071 36.141 36.141c3.012 21.082-15.059 36.141-36.141 36.141zM512 861.365c-21.082 0-36.141-18.071-36.141-36.141 0-21.082 18.071-36.141 36.141-36.141 21.082 0 36.141 18.071 36.141 36.141 3.012 18.071-15.059 36.141-36.141 36.141zM512 734.871c-21.082 0-36.141-18.071-36.141-36.141 0-21.082 18.071-36.141 36.141-36.141 21.082 0 36.141 18.071 36.141 36.141 3.012 18.071-15.059 36.141-36.141 36.141zM512 605.365c-21.082 0-36.141-18.071-36.141-36.141 0-21.082 18.071-36.141 36.141-36.141 21.082 0 36.141 18.071 36.141 36.141 3.012 21.082-15.059 36.141-36.141 36.141zM641.506 861.365c-21.082 0-36.141-18.071-36.141-36.141 0-21.082 18.071-36.141 36.141-36.141s36.141 18.071 36.141 36.141c0 18.071-18.071 36.141-36.141 36.141zM641.506 734.871c-21.082 0-36.141-18.071-36.141-36.141 0-21.082 18.071-36.141 36.141-36.141s36.141 18.071 36.141 36.141c0 18.071-18.071 36.141-36.141 36.141zM641.506 605.365c-21.082 0-36.141-18.071-36.141-36.141 0-21.082 18.071-36.141 36.141-36.141s36.141 18.071 36.141 36.141c0 21.082-18.071 36.141-36.141 36.141zM683.671 484.894h-343.341v-304.188h340.329v304.188z"
			],
			"grid": 0,
			"tags": [
				"promise_icon_fp01"
			],
			"defaultCode": 59726
		},
		{
			"paths": [
				"M301.176 867.388c0 21.082-18.071 39.153-39.153 39.153h-138.541c-21.082 0-39.153-18.071-39.153-39.153v-710.776c0-21.082 18.071-39.153 39.153-39.153h138.541c21.082 0 39.153 18.071 39.153 39.153v710.776z",
				"M906.541 117.459h-521.035c-18.071 0-33.129 15.059-33.129 33.129v722.824c0 18.071 15.059 33.129 33.129 33.129h521.035c18.071 0 33.129-15.059 33.129-33.129v-722.824c-0-18.071-15.059-33.129-33.129-33.129zM545.129 807.153c0 12.047-9.035 21.082-21.082 21.082h-72.282c-12.047 0-21.082-9.035-21.082-21.082v-63.247c0-12.047 9.035-21.082 21.082-21.082h72.282c12.047 0 21.082 9.035 21.082 21.082v63.247zM545.129 671.624c0 12.047-9.035 21.082-21.082 21.082h-72.282c-12.047 0-21.082-9.035-21.082-21.082v-63.247c0-12.047 9.035-21.082 21.082-21.082h72.282c12.047 0 21.082 9.035 21.082 21.082v63.247zM545.129 536.094c0 12.047-9.035 21.082-21.082 21.082h-72.282c-12.047 0-21.082-9.035-21.082-21.082v-63.247c0-12.047 9.035-21.082 21.082-21.082h72.282c12.047 0 21.082 9.035 21.082 21.082v63.247zM701.741 807.153c0 12.047-9.035 21.082-21.082 21.082h-72.282c-12.047 0-21.082-9.035-21.082-21.082v-63.247c0-12.047 9.035-21.082 21.082-21.082h72.282c12.047 0 21.082 9.035 21.082 21.082v63.247zM701.741 671.624c0 12.047-9.035 21.082-21.082 21.082h-72.282c-12.047 0-21.082-9.035-21.082-21.082v-63.247c0-12.047 9.035-21.082 21.082-21.082h72.282c12.047 0 21.082 9.035 21.082 21.082v63.247zM701.741 536.094c0 12.047-9.035 21.082-21.082 21.082h-72.282c-12.047 0-21.082-9.035-21.082-21.082v-63.247c0-12.047 9.035-21.082 21.082-21.082h72.282c12.047 0 21.082 9.035 21.082 21.082v63.247zM858.353 807.153c0 12.047-9.035 21.082-21.082 21.082h-72.282c-12.047 0-21.082-9.035-21.082-21.082v-63.247c0-12.047 9.035-21.082 21.082-21.082h72.282c12.047 0 21.082 9.035 21.082 21.082v63.247zM858.353 671.624c0 12.047-9.035 21.082-21.082 21.082h-72.282c-12.047 0-21.082-9.035-21.082-21.082v-63.247c0-12.047 9.035-21.082 21.082-21.082h72.282c12.047 0 21.082 9.035 21.082 21.082v63.247zM858.353 536.094c0 12.047-9.035 21.082-21.082 21.082h-72.282c-12.047 0-21.082-9.035-21.082-21.082v-63.247c0-12.047 9.035-21.082 21.082-21.082h72.282c12.047 0 21.082 9.035 21.082 21.082v63.247zM864.376 391.529c0 12.047-9.035 18.071-18.071 18.071h-400.565c-12.047 0-18.071-9.035-18.071-18.071v-168.659c0-12.047 9.035-18.071 18.071-18.071h397.553c12.047 0 18.071 9.035 18.071 18.071v168.659z"
			],
			"grid": 0,
			"tags": [
				"promise_icon_phone03"
			],
			"defaultCode": 59727
		},
		{
			"paths": [
				"M680.659 442.729h-12.047v171.671c0 27.106-24.094 51.2-51.2 51.2h-406.588v12.047c0 18.071 15.059 33.129 33.129 33.129h436.706c18.071 0 33.129-15.059 33.129-33.129v-201.788c-0-18.071-15.059-33.129-33.129-33.129v0zM680.659 442.729z",
				"M617.412 379.482h-12.047v171.671c0 27.106-24.094 51.2-51.2 51.2h-406.588v12.047c0 18.071 15.059 33.129 33.129 33.129h436.706c18.071 0 33.129-15.059 33.129-33.129v-201.788c0-18.071-15.059-33.129-33.129-33.129v0zM617.412 379.482z",
				"M554.165 313.224h-439.718c-18.071 0-30.118 15.059-30.118 33.129v201.788c0 18.071 12.047 33.129 30.118 33.129h436.706c18.071 0 36.141-15.059 36.141-33.129v-201.788c0-15.059-15.059-33.129-33.129-33.129zM391.529 421.647v27.106h-45.176v18.071h45.176v27.106h-45.176v45.176h-18.071v-45.176h-45.176v-27.106h45.176v-18.071h-45.176v-27.106h30.118l-36.141-54.212h27.106l33.129 51.2 33.129-51.2h27.106l-36.141 54.212h30.118z",
				"M849.318 680.659l90.353-114.447h-45.176c-9.035-225.882-111.435-246.965-135.529-246.965 60.235 27.106 48.188 216.847 45.176 246.965h-45.176l90.353 114.447z"
			],
			"grid": 0,
			"tags": [
				"promise_icon_yen10"
			],
			"defaultCode": 59724
		},
		{
			"paths": [
				"M834.259 84.329h-644.518c-33.129 0-33.129 30.118-33.129 33.129v774.024c0 33.129 15.059 48.188 33.129 48.188h647.529c18.071 0 33.129-15.059 33.129-33.129v-789.082c-3.012-18.071-18.071-33.129-36.141-33.129v0zM252.988 195.765c0-6.024 6.024-12.047 12.047-12.047h496.941c6.024 0 12.047 6.024 12.047 12.047v268.047c0 6.024-6.024 12.047-12.047 12.047h-499.953c-6.024 0-12.047-6.024-12.047-12.047v-268.047zM439.718 825.224c0 6.024-6.024 12.047-12.047 12.047h-126.494c-6.024 0-12.047-6.024-12.047-12.047v-195.765c0-6.024 6.024-12.047 12.047-12.047h126.494c6.024 0 12.047 6.024 12.047 12.047v195.765zM484.894 596.329c0 6.024-6.024 12.047-12.047 12.047h-15.059c-6.024 0-12.047-6.024-12.047-12.047v-6.024h-159.624v6.024c0 6.024-6.024 12.047-12.047 12.047h-15.059c-6.024 0-12.047-6.024-12.047-12.047v-30.118c0-6.024 6.024-12.047 12.047-12.047h213.835c6.024 0 12.047 6.024 12.047 12.047v30.118zM590.306 819.2c0 3.012-3.012 9.035-9.035 9.035h-45.176c-3.012 0-9.035-3.012-9.035-9.035v-45.176c0-3.012 3.012-9.035 9.035-9.035h45.176c3.012 0 9.035 3.012 9.035 9.035v45.176zM590.306 728.847c0 3.012-3.012 9.035-9.035 9.035h-45.176c-3.012 0-9.035-3.012-9.035-9.035v-45.176c0-3.012 3.012-9.035 9.035-9.035h45.176c3.012 0 9.035 3.012 9.035 9.035v45.176zM590.306 635.482c0 3.012-3.012 9.035-9.035 9.035h-45.176c-3.012 0-9.035-3.012-9.035-9.035v-45.176c0-3.012 3.012-9.035 9.035-9.035h45.176c3.012 0 9.035 3.012 9.035 9.035v45.176zM680.659 819.2c0 3.012-3.012 9.035-9.035 9.035h-45.176c-3.012 0-9.035-3.012-9.035-9.035v-45.176c0-3.012 3.012-9.035 9.035-9.035h45.176c3.012 0 9.035 3.012 9.035 9.035v45.176zM680.659 728.847c0 3.012-3.012 9.035-9.035 9.035h-45.176c-3.012 0-9.035-3.012-9.035-9.035v-45.176c0-3.012 3.012-9.035 9.035-9.035h45.176c3.012 0 9.035 3.012 9.035 9.035v45.176zM680.659 635.482c0 3.012-3.012 9.035-9.035 9.035h-45.176c-3.012 0-9.035-3.012-9.035-9.035v-45.176c0-3.012 3.012-9.035 9.035-9.035h45.176c3.012 0 9.035 3.012 9.035 9.035v45.176zM771.012 819.2c0 3.012-3.012 9.035-9.035 9.035h-45.176c-3.012 0-9.035-3.012-9.035-9.035v-45.176c0-3.012 3.012-9.035 9.035-9.035h45.176c3.012 0 9.035 3.012 9.035 9.035v45.176zM771.012 728.847c0 3.012-3.012 9.035-9.035 9.035h-45.176c-3.012 0-9.035-3.012-9.035-9.035v-45.176c0-3.012 3.012-9.035 9.035-9.035h45.176c3.012 0 9.035 3.012 9.035 9.035v45.176zM771.012 635.482c0 3.012-3.012 9.035-9.035 9.035h-45.176c-3.012 0-9.035-3.012-9.035-9.035v-45.176c0-3.012 3.012-9.035 9.035-9.035h45.176c3.012 0 9.035 3.012 9.035 9.035v45.176zM771.012 635.482z",
				"M346.353 382.494l-3.012 12.047c-3.012 6.024-3.012 12.047-3.012 18.071h-45.176c3.012-3.012 3.012-9.035 6.024-21.082l36.141-99.388c3.012-9.035 6.024-15.059 6.024-18.071h48.188c0 3.012 3.012 9.035 6.024 18.071l36.141 99.388c3.012 9.035 6.024 18.071 6.024 21.082h-45.176c0-6.024-3.012-12.047-3.012-18.071l-3.012-12.047h-42.165zM379.482 349.365l-12.047-42.165-12.047 42.165h24.094z",
				"M515.012 307.2v78.306c0 9.035 0 18.071 0 27.106h-42.165c0-6.024 0-15.059 0-27.106v-78.306h-18.071c-12.047 0-18.071 0-27.106 0v-36.141c6.024 0 15.059 0 27.106 0h75.294c12.047 0 18.071 0 27.106 0v36.141c-6.024 0-15.059 0-27.106 0h-15.059z",
				"M689.694 325.271c0 0-3.012 9.035-6.024 27.106l-12.047 36.141c0 3.012-3.012 6.024-3.012 9.035-3.012 9.035-3.012 15.059-3.012 18.071h-33.129c0-3.012-3.012-9.035-3.012-15.059 0-3.012-3.012-6.024-3.012-12.047l-12.047-39.153c-3.012-6.024-3.012-15.059-6.024-24.094 0 18.071 0 27.106 0 27.106v33.129c0 12.047 0 21.082 0 27.106h-36.141c0-6.024 0-15.059 0-27.106v-84.329c0-12.047 0-21.082 0-27.106h51.2c0 3.012 0 6.024 0 9.035s3.012 9.035 3.012 15.059v3.012l18.071 63.247 18.071-63.247c0-3.012 3.012-6.024 3.012-6.024 3.012-9.035 3.012-15.059 3.012-18.071h51.2c0 6.024 0 15.059 0 27.106v87.341c0 12.047 0 21.082 0 27.106h-39.153c0-6.024 0-15.059 0-27.106v-33.129c9.035-6.024 9.035-15.059 9.035-33.129z"
			],
			"grid": 0,
			"tags": [
				"promise_icon_atm02"
			],
			"defaultCode": 59725
		},
		{
			"paths": [
				"M626.447 508.988c0-15.059-3.012-30.118-6.024-42.165s-9.035-27.106-15.059-36.141c-15.059-24.094-33.129-39.153-54.212-54.212-21.082-12.047-48.188-18.071-75.294-18.071-21.082 0-39.153 3.012-57.224 12.047-18.071 6.024-33.129 18.071-48.188 33.129s-24.094 30.118-33.129 48.188c-6.024 18.071-12.047 36.141-12.047 57.224 0 27.106 6.024 48.188 15.059 69.271s27.106 39.153 45.176 54.212c12.047 9.035 24.094 15.059 39.153 18.071s30.118 6.024 45.176 6.024c15.059 0 27.106 0 39.153-3.012s21.082-6.024 33.129-12.047l-75.294-81.318h54.212l54.212 57.224c15.059-12.047 27.106-27.106 36.141-45.176 12.047-18.071 15.059-39.153 15.059-63.247zM801.129 755.953c0 0 0 0 0 0-3.012-51.2 78.306-72.282 78.306-237.929-0-219.859-177.694-397.553-397.553-397.553s-397.553 177.694-397.553 397.553 177.694 397.553 397.553 397.553c150.588 0 159.624-48.188 189.741-48.188 0 0 0 0 0 0 78.306-3.012 48.188 30.118 126.494 48.188 81.318 18.071 141.553-45.176 141.553-69.271-60.235 24.094-117.459-6.024-138.541-90.353zM626.447 725.835l-48.188-51.2c-15.059 9.035-30.118 15.059-48.188 18.071s-36.141 6.024-57.224 6.024c-21.082 0-39.153-3.012-60.235-9.035-18.071-6.024-36.141-15.059-51.2-27.106-24.094-18.071-45.176-42.165-57.224-66.259-12.047-27.106-21.082-54.212-21.082-87.341 0-24.094 6.024-51.2 15.059-72.282s24.094-45.176 42.165-63.247c18.071-18.071 39.153-33.129 63.247-42.165s48.188-15.059 75.294-15.059c27.106 0 51.2 3.012 72.282 12.047 24.094 9.035 42.165 21.082 60.235 39.153s33.129 39.153 45.176 63.247c9.035 24.094 15.059 51.2 15.059 78.306 0 30.118-6.024 57.224-18.071 81.318s-27.106 45.176-48.188 60.235l69.271 75.294h-48.188z"
			],
			"grid": 0,
			"tags": [
				"promise_icon_blnq01"
			],
			"defaultCode": 59722
		},
		{
			"paths": [
				"M418.635 539.106h120.471l-60.235-138.541-60.235 138.541zM801.129 755.953c0 0 0 0 0 0-3.012-51.2 78.306-72.282 78.306-237.929-0-219.859-177.694-397.553-397.553-397.553s-397.553 177.694-397.553 397.553 177.694 397.553 397.553 397.553c150.588 0 159.624-48.188 189.741-48.188 0 0 0 0 0 0 78.306-3.012 48.188 30.118 126.494 48.188 81.318 18.071 141.553-45.176 141.553-69.271-60.235 24.094-117.459-6.024-138.541-90.353zM602.353 692.706l-48.188-114.447h-147.576l-51.2 114.447h-48.188l171.671-391.529 171.671 391.529h-48.188z"
			],
			"grid": 0,
			"tags": [
				"promise_icon_blna01"
			],
			"defaultCode": 59723
		},
		{
			"paths": [
				"M277.082 882.447h36.141v-24.094h-36.141v24.094zM246.965 882.447h30.118v-162.635h-30.118v162.635zM695.718 722.824l-21.082 60.235h18.071l30.118-60.235h-27.106zM599.341 864.376l15.059-30.118-27.106-57.224h-30.118l42.165 87.341-33.129 72.282h30.118l72.282-162.635h-30.118l-39.153 90.353zM755.953 816.188c0 0-3.012 0-3.012 0-9.035-3.012-12.047-6.024-12.047-9.035s0-3.012 3.012-6.024c3.012 0 6.024-3.012 9.035-3.012s9.035 0 12.047 3.012c3.012 3.012 9.035 3.012 12.047 6.024l6.024-24.094c-6.024-3.012-12.047-6.024-18.071-6.024s-12.047-3.012-18.071-3.012c-12.047 0-21.082 3.012-27.106 9.035s-9.035 12.047-9.035 24.094c0 6.024 3.012 15.059 6.024 18.071 3.012 6.024 12.047 9.035 21.082 12.047 3.012 0 3.012 0 6.024 3.012 9.035 3.012 12.047 6.024 12.047 9.035s0 6.024-3.012 6.024c-3.012 0-6.024 3.012-9.035 3.012-6.024 0-12.047 0-18.071-3.012s-12.047-6.024-15.059-9.035l-6.024 27.106c6.024 3.012 12.047 6.024 18.071 9.035s15.059 3.012 21.082 3.012c12.047 0 21.082-3.012 27.106-9.035s9.035-15.059 9.035-24.094c0-9.035-3.012-15.059-6.024-18.071 0-9.035-6.024-15.059-18.071-18.071zM400.565 786.071c-9.035-6.024-18.071-9.035-30.118-9.035-30.118 0-54.212 24.094-54.212 54.212s24.094 54.212 54.212 54.212c12.047 0 21.082-3.012 30.118-9.035v9.035h30.118v-105.412h-30.118v6.024zM373.459 858.353c-15.059 0-27.106-12.047-27.106-27.106s12.047-27.106 27.106-27.106c15.059 0 27.106 12.047 27.106 27.106s-12.047 27.106-27.106 27.106zM512 783.059c-6.024-3.012-12.047-3.012-18.071-3.012-30.118 0-54.212 24.094-54.212 54.212s24.094 54.212 54.212 54.212c6.024 0 12.047 0 18.071-3.012v3.012h30.118v-180.706h-30.118v75.294zM512 852.329c-6.024 3.012-12.047 6.024-18.071 6.024-15.059 0-27.106-12.047-27.106-27.106s12.047-27.106 27.106-27.106c6.024 0 12.047 3.012 18.071 6.024 6.024 6.024 9.035 12.047 9.035 21.082 3.012 9.035-3.012 18.071-9.035 21.082zM515.012 433.694c9.035 0 15.059-6.024 18.071-15.059h-39.153c6.024 9.035 12.047 15.059 21.082 15.059zM478.871 367.435c-6.024 0-9.035 6.024-9.035 9.035s6.024 9.035 9.035 9.035 9.035-6.024 9.035-9.035-3.012-9.035-9.035-9.035zM551.153 367.435c-6.024 0-9.035 6.024-9.035 9.035s6.024 9.035 9.035 9.035 9.035-6.024 9.035-9.035-3.012-9.035-9.035-9.035zM385.506 650.541c0 0 0 0 0 0 39.153 18.071 81.318 30.118 126.494 30.118 51.2 0 96.376-12.047 138.541-33.129 0 0 0 0 0 0s0 0 0 0c93.365-51.2 156.612-147.576 156.612-262.024 0-162.635-132.518-295.153-295.153-295.153s-295.153 132.518-295.153 295.153c0 114.447 69.271 216.847 168.659 265.035 0 0 0 0 0 0zM515.012 572.235c-18.071-24.094-27.106-48.188-33.129-72.282 12.047 3.012 21.082 9.035 33.129 9.035s24.094-3.012 33.129-6.024c-3.012 15.059-9.035 33.129-33.129 69.271zM554.165 475.859c0 0 0 3.012 0 0-12.047 9.035-24.094 12.047-39.153 12.047-21.082 0-39.153-9.035-54.212-21.082 0 0 0 0 0 0 12.047 0 21.082-6.024 21.082-15.059s-9.035-15.059-21.082-15.059c-9.035 0-15.059 3.012-18.071 6.024-15.059-24.094-24.094-51.2-24.094-84.329 0-3.012 0-6.024 0-9.035 27.106-15.059 48.188-48.188 60.235-81.318 27.106 42.165 90.353 84.329 129.506 84.329 0 3.012 0 3.012 0 6.024 3.012 54.212-21.082 99.388-54.212 117.459 0 0 0 0 0 0zM421.647 439.718c-3.012-3.012-6.024-3.012-9.035-6.024-6.024-9.035-9.035-18.071-12.047-30.118h6.024c3.012 15.059 9.035 27.106 15.059 36.141zM252.988 382.494c0-144.565 114.447-262.024 259.012-262.024s262.024 117.459 262.024 262.024c0 90.353-48.188 171.671-120.471 219.859-6.024-48.188-39.153-90.353-81.318-114.447 9.035-9.035 18.071-18.071 27.106-27.106 9.035 33.129 48.188 39.153 66.259 39.153-21.082-9.035-21.082-27.106-21.082-45.176 0-12.047-15.059-21.082-27.106-24.094 3.012-6.024 6.024-15.059 6.024-21.082h27.106v-69.271h-24.094c0-3.012 0-3.012 0-6.024 0 0 0 0 0 0-3.012-18.071-9.035-33.129-15.059-51.2 0 0 0-3.012 0-3.012-3.012-6.024-6.024-9.035-9.035-12.047-21.082-33.129-51.2-54.212-87.341-54.212-12.047 0-24.094 3.012-36.141 6.024v0c-42.165 18.071-69.271 60.235-75.294 117.459h-27.106v69.271h9.035c3.012 12.047 6.024 24.094 15.059 39.153 6.024 9.035 18.071 18.071 39.153 21.082 9.035 9.035 18.071 18.071 27.106 24.094-42.165 24.094-81.318 63.247-81.318 117.459-81.318-48.188-132.518-129.506-132.518-225.882z"
			],
			"grid": 0,
			"tags": [
				"promise_icon_lady01"
			],
			"defaultCode": 59715
		},
		{
			"paths": [
				"M686.682 581.271v21.082h39.153v21.082h-39.153v21.082h39.153v39.153h21.082v-39.153h39.153v-21.082h-39.153v-21.082h39.153v-21.082h-27.106l36.141-51.2h-24.094l-30.118 45.176-30.118-45.176h-24.094l33.129 51.2h-33.129zM623.435 786.071v-51.2l-129.506 102.4 129.506 102.4v-51.2c256-9.035 277.082-126.494 277.082-153.6-30.118 69.271-243.953 54.212-277.082 51.2zM421.647 406.588c3.012 21.082 21.082 36.141 42.165 36.141 24.094 0 42.165-18.071 42.165-42.165 0 0 0-3.012 0-3.012l96.376-114.447c6.024-9.035 6.024-18.071 0-24.094s-18.071-3.012-24.094 3.012l-96.376 102.4c-6.024-3.012-12.047-6.024-18.071-6.024s-15.059 3.012-21.082 6.024l-63.247-42.165c-9.035-6.024-21.082-3.012-27.106 6.024s-6.024 21.082 3.012 27.106l66.259 51.2zM737.882 774.024c93.365 0 168.659-75.294 168.659-168.659 0-81.318-57.224-147.576-132.518-165.647 3.012-12.047 3.012-27.106 3.012-42.165 0-87.341-36.141-165.647-93.365-222.871s-135.529-93.365-222.871-93.365v75.294c66.259 0 126.494 27.106 168.659 69.271s69.271 102.4 69.271 168.659c0 15.059-3.012 27.106-3.012 42.165-72.282 18.071-129.506 84.329-129.506 162.635 0 3.012 0 6.024 0 9.035-33.129 15.059-69.271 27.106-108.424 27.106-66.259 0-126.494-27.106-168.659-69.271s-69.271-102.4-69.271-168.659c0-21.082 3.012-42.165 9.035-63.247l30.118 18.071c3.012 3.012 9.035 3.012 12.047 0s6.024-6.024 6.024-9.035l12.047-174.682c0-6.024-3.012-9.035-6.024-12.047-6.024-3.012-9.035-3.012-15.059 0l-150.588 90.353c3.012 6.024-0 9.035-0 12.047 0 6.024 3.012 9.035 9.035 12.047l39.153 24.094c-12.047 33.129-18.071 66.259-18.071 105.412 0 87.341 36.141 165.647 93.365 222.871s135.529 93.365 222.871 93.365c45.176 0 90.353-9.035 129.506-27.106 27.106 48.188 81.318 84.329 144.565 84.329zM737.882 460.8c78.306 0 141.553 63.247 141.553 141.553s-63.247 141.553-141.553 141.553c-78.306 0-141.553-63.247-141.553-141.553s63.247-141.553 141.553-141.553z"
			],
			"grid": 0,
			"tags": [
				"promise_icon_clock03"
			],
			"defaultCode": 59716
		},
		{
			"paths": [
				"M403.576 322.259v141.553l-99.388 99.388c-12.047 12.047-12.047 33.129 0 45.176s33.129 12.047 45.176 0l117.459-117.459v-168.659c0-18.071-15.059-30.118-30.118-30.118-18.071-0-33.129 15.059-33.129 30.118zM508.988 611.388c-12.047 0-27.106 15.059-27.106 27.106v15.059h457.788v-15.059c0-12.047-3.012-27.106-15.059-27.106h-171.671c15.059-39.153 24.094-84.329 24.094-129.506 0-192.753-156.612-346.353-346.353-346.353s-346.353 153.6-346.353 346.353c0 192.753 156.612 346.353 346.353 346.353 15.059 0 33.129 0 48.188-3.012v45.176c0 12.047 15.059 21.082 27.106 21.082h415.624c12.047 0 15.059-6.024 15.059-21.082v-183.718h-457.788v54.212c-15.059 3.012-30.118 3.012-48.188 3.012-144.565 0-265.035-117.459-265.035-265.035 0-144.565 117.459-265.035 265.035-265.035 144.565 0 265.035 117.459 265.035 265.035 0 48.188-12.047 90.353-33.129 129.506h-153.6zM704.753 740.894h180.706v12.047h-180.706v-12.047zM704.753 783.059h159.624v12.047h-159.624v-12.047zM704.753 825.224h150.588v12.047h-150.588v-12.047zM533.082 740.894h96.376v96.376h-96.376v-96.376z"
			],
			"grid": 0,
			"tags": [
				"promise_icon_clock02"
			],
			"defaultCode": 59717
		},
		{
			"paths": [
				"M512 84.329c-234.918 0-427.671 192.753-427.671 427.671s192.753 427.671 427.671 427.671 427.671-192.753 427.671-427.671c0-234.918-192.753-427.671-427.671-427.671zM512 837.271c-180.706 0-325.271-144.565-325.271-325.271s144.565-325.271 325.271-325.271c180.706 0 325.271 144.565 325.271 325.271s-144.565 325.271-325.271 325.271z",
				"M515.012 277.082c-21.082 0-39.153 18.071-39.153 39.153v174.682l-123.482 123.482c-15.059 15.059-15.059 39.153 0 54.212s39.153 15.059 54.212 0l147.576-147.576v-207.812c-0-18.071-15.059-36.141-39.153-36.141z"
			],
			"grid": 0,
			"tags": [
				"promise_icon_clock01"
			],
			"defaultCode": 59718
		},
		{
			"paths": [
				"M539.106 313.224h150.588c18.071 0 30.118-12.047 33.129-27.106l21.082-114.447c3.012-9.035 0-21.082-6.024-30.118s-15.059-12.047-27.106-12.047h-150.588c-18.071 0-30.118 12.047-33.129 27.106l-21.082 114.447c-3.012 9.035 0 21.082 6.024 30.118 6.024 6.024 15.059 12.047 27.106 12.047zM183.718 626.447h-93.365c-18.071 0-39.153 15.059-42.165 36.141l-12.047 48.188c-6.024 18.071 0 36.141 15.059 36.141h3.012c18.071 0 9.035 15.059 3.012 36.141l-6.024 24.094c-6.024 18.071 6.024 36.141 27.106 36.141h54.212c18.071 0 39.153-15.059 42.165-36.141l15.059-57.224 21.082-90.353c6.024-18.071-6.024-33.129-27.106-33.129zM707.765 792.094c90.353 0 162.635-72.282 162.635-162.635s-72.282-162.635-162.635-162.635c-30.118 0-57.224 9.035-81.318 21.082l21.082-96.376c3.012-9.035 0-21.082-6.024-30.118s-18.071-12.047-27.106-12.047h-96.376c-15.059 0-30.118 12.047-33.129 27.106l-18.071 90.353c-3.012 15.059-18.071 27.106-33.129 27.106h-225.882c-18.071 0-36.141 15.059-36.141 36.141v27.106c0 18.071 15.059 36.141 36.141 36.141h6.024c18.071 0 36.141 15.059 36.141 36.141v18.071c0 18.071 15.059 36.141 36.141 36.141h265.035c21.082 60.235 84.329 108.424 156.612 108.424zM707.765 496.941c72.282 0 132.518 60.235 132.518 132.518s-60.235 132.518-132.518 132.518-132.518-60.235-132.518-132.518 60.235-132.518 132.518-132.518zM990.871 879.435l-138.541-108.424v54.212c-36.141 3.012-265.035 18.071-298.165-54.212 0 27.106 24.094 153.6 298.165 162.635v54.212l138.541-108.424zM331.294 704.753h-72.282c-18.071 0-36.141 15.059-36.141 36.141v15.059c0 18.071 15.059 36.141 36.141 36.141h72.282c18.071 0 36.141-15.059 36.141-36.141v-15.059c0-21.082-15.059-36.141-36.141-36.141zM656.565 611.388v21.082h42.165v21.082h-42.165v21.082h42.165v42.165h24.094v-42.165h42.165v-21.082h-42.165v-21.082h42.165v-21.082h-33.129l36.141-54.212h-27.106l-33.129 48.188-33.129-48.188h-27.106l36.141 54.212h-27.106z"
			],
			"grid": 0,
			"tags": [
				"promise_icon_map03"
			],
			"defaultCode": 59719
		},
		{
			"paths": [
				"M587.294 310.212h162.635c9.035 0 18.071-6.024 21.082-18.071l24.094-126.494c3.012-9.035 0-21.082-6.024-30.118s-15.059-12.047-27.106-12.047h-162.635c-9.035 0-18.071 6.024-21.082 18.071l-24.094 129.506c-3.012 9.035 0 21.082 6.024 30.118 6.024 6.024 18.071 9.035 27.106 9.035zM397.553 701.741h-102.4c-12.047 0-21.082 9.035-21.082 21.082v45.176c0 12.047 9.035 21.082 21.082 21.082h102.4c12.047 0 21.082-9.035 21.082-21.082v-45.176c-3.012-12.047-12.047-21.082-21.082-21.082zM234.918 623.435h-93.365c-18.071 0-39.153 15.059-42.165 36.141l-12.047 48.188c-6.024 18.071 0 36.141 15.059 36.141h3.012c15.059 0 9.035 15.059 3.012 36.141l-6.024 21.082c-6.024 18.071 6.024 36.141 27.106 36.141h54.212c18.071 0 39.153-15.059 42.165-36.141l15.059-63.247 21.082-81.318c6.024-18.071-6.024-33.129-27.106-33.129zM930.635 614.4h-283.106l48.188-225.882c3.012-9.035 0-21.082-6.024-30.118s-15.059-12.047-27.106-12.047h-96.376c-15.059 0-30.118 12.047-33.129 27.106l-18.071 90.353c-3.012 15.059-18.071 27.106-33.129 27.106h-234.918c-12.047 0-21.082 9.035-21.082 21.082v54.212c0 12.047 9.035 21.082 21.082 21.082h36.141c12.047 0 21.082 9.035 21.082 21.082v45.176c0 12.047 9.035 21.082 21.082 21.082h150.588v-15.059h463.812v-33.129c0-6.024-6.024-12.047-9.035-12.047zM472.847 885.459c0 6.024 3.012 9.035 9.035 9.035h445.741c6.024 0 9.035-3.012 9.035-9.035v-195.765h-463.812v195.765zM701.741 743.906h183.718v12.047h-183.718v-12.047zM701.741 789.082h162.635v12.047h-162.635v-12.047zM701.741 831.247h150.588v12.047h-150.588v-12.047zM527.059 743.906h96.376v99.388h-96.376v-99.388z"
			],
			"grid": 0,
			"tags": [
				"promise_icon_map02"
			],
			"defaultCode": 59720
		},
		{
			"paths": [
				"M484.894 840.282c0 24.094-18.071 42.165-42.165 42.165h-87.341c-24.094 0-42.165-18.071-42.165-42.165v-18.071c0-24.094 18.071-42.165 42.165-42.165h87.341c24.094 0 42.165 18.071 42.165 42.165v18.071z",
				"M162.635 683.671h-9.035c-24.094 0-45.176 18.071-51.2 42.165l-15.059 57.224c-6.024 24.094 0 42.165 18.071 42.165h6.024c21.082 0 12.047 18.071 6.024 42.165l-6.024 27.106c-6.024 24.094 9.035 42.165 30.118 42.165h63.247c24.094 0 45.176-18.071 51.2-42.165l18.071-69.271 24.094-99.388c6.024-24.094-9.035-42.165-30.118-42.165l-105.412 0z",
				"M662.588 352.376c-21.082 0-36.141 15.059-42.165 33.129l-24.094 108.424c-3.012 18.071-21.082 33.129-42.165 33.129h-259.012c-24.094 0-42.165 18.071-42.165 42.165v30.118c0 24.094 18.071 42.165 42.165 42.165h9.035c24.094 0 42.165 18.071 42.165 42.165v21.082c0 24.094 18.071 42.165 42.165 42.165h322.259c21.082 0 36.141-15.059 42.165-33.129l66.259-310.212c3.012-12.047 0-24.094-9.035-36.141-9.035-9.035-21.082-15.059-33.129-15.059h-114.447z",
				"M912.565 277.082c-3.012 21.082-21.082 33.129-42.165 33.129h-180.706c-12.047 0-24.094-6.024-33.129-15.059s-12.047-21.082-9.035-33.129l27.106-138.541c3.012-21.082 21.082-33.129 42.165-33.129h180.706c12.047 0 24.094 6.024 33.129 15.059s12.047 21.082 9.035 33.129l-27.106 138.541z"
			],
			"grid": 0,
			"tags": [
				"promise_icon_map01"
			],
			"defaultCode": 59721
		},
		{
			"paths": [
				"M677.647 457.788c0 24.094-3.012 45.176-9.035 66.259 39.153-39.153 66.259-90.353 66.259-150.588 0-114.447-93.365-207.812-207.812-207.812-60.235 0-111.435 24.094-150.588 66.259 21.082-6.024 42.165-9.035 66.259-9.035 129.506 0 234.918 105.412 234.918 234.918zM761.976 373.459c0 24.094-3.012 45.176-9.035 66.259 39.153-36.141 63.247-90.353 63.247-147.576 0-114.447-93.365-207.812-207.812-207.812-60.235 0-111.435 24.094-150.588 63.247 21.082-6.024 45.176-9.035 66.259-9.035 132.518-0 237.929 105.412 237.929 234.918zM614.4 731.859c-45.176 6.024-337.318 24.094-376.471-69.271 0 33.129 30.118 192.753 376.471 207.812v69.271l174.682-138.541-174.682-138.541v69.271zM442.729 662.588c114.447 0 204.8-90.353 204.8-204.8s-90.353-204.8-204.8-204.8-204.8 90.353-204.8 204.8 93.365 204.8 204.8 204.8zM400.565 361.412l42.165 60.235 42.165-60.235h42.165l-48.188 69.271h33.129v27.106h-54.212v27.106h54.212v27.106h-54.212v54.212h-27.106v-54.212h-54.212v-27.106h54.212v-27.106h-54.212v-27.106h30.118l-45.176-69.271h39.153z"
			],
			"grid": 0,
			"tags": [
				"promise_icon_yen09"
			],
			"defaultCode": 59714
		},
		{
			"paths": [
				"M277.082 442.729c-6.024 18.071-6.024 18.071-6.024 21.082l-33.129 99.388h81.318l-36.141-99.388c-0-6.024-3.012-9.035-6.024-21.082zM761.976 90.353h-499.953c-96.376 0-171.671 75.294-171.671 171.671v502.965c0 93.365 75.294 168.659 171.671 168.659h502.965c93.365 0 171.671-75.294 171.671-171.671v-499.953c-3.012-96.376-78.306-171.671-174.682-171.671zM352.376 671.624c-3.012-12.047-6.024-24.094-9.035-36.141l-12.047-36.141h-105.412l-15.059 36.141c-6.024 15.059-6.024 21.082-9.035 36.141h-54.212c6.024-9.035 12.047-24.094 18.071-39.153l72.282-192.753c6.024-18.071 9.035-24.094 12.047-33.129h57.224c3.012 9.035 3.012 12.047 12.047 33.129l72.282 192.753c9.035 21.082 12.047 30.118 18.071 39.153h-57.224zM581.271 448.753c-12.047-3.012-24.094-3.012-48.188-3.012h-42.165v180.706c0 18.071 0 30.118 3.012 42.165h-51.2c3.012-15.059 3.012-24.094 3.012-42.165v-180.706h-45.176c-21.082 0-33.129 0-45.176 3.012v-45.176c12.047 3.012 27.106 3.012 45.176 3.012h132.518c24.094 0 36.141 0 48.188-3.012v45.176zM879.435 671.624h-45.176c3.012-15.059 3.012-24.094 3.012-48.188v-111.435c0-30.118 3.012-45.176 3.012-51.2-3.012 18.071-12.047 36.141-15.059 48.188l-51.2 117.459c-6.024 15.059-12.047 33.129-15.059 45.176h-39.153c-3.012-12.047-6.024-27.106-15.059-45.176l-48.188-114.447c-6.024-15.059-9.035-24.094-18.071-51.2 0 18.071 3.012 45.176 3.012 51.2v108.424c0 24.094 0 36.141 3.012 48.188h-45.176c3.012-12.047 3.012-27.106 3.012-48.188v-165.647c0-21.082 0-36.141-3.012-48.188h60.235c3.012 12.047 6.024 24.094 12.047 39.153l66.259 165.647 66.259-165.647c6.024-15.059 9.035-27.106 12.047-39.153h60.235c-3.012 15.059-3.012 27.106-3.012 48.188v165.647c3.012 24.094 3.012 36.141 6.024 51.2z"
			],
			"grid": 0,
			"tags": [
				"promise_icon_atm01"
			],
			"defaultCode": 59712
		},
		{
			"paths": [
				"M891.482 132.518h-758.965v96.376h758.965v-96.376zM939.671 608.376l-18.071-96.376-30.118-180.706h-758.965l-30.118 180.706-18.071 96.376h48.188v286.118h475.859v-286.118h189.741v286.118h96.376v-286.118h45.176zM512 798.118h-283.106v-189.741h283.106v189.741zM512 798.118z"
			],
			"grid": 0,
			"tags": [
				"promise_icon_shop04"
			],
			"defaultCode": 59713
		},
		{
			"paths": [
				"M521.035 385.506h222.871v21.082h-222.871v-21.082z",
				"M521.035 298.165h222.871v21.082h-222.871v-21.082z",
				"M638.494 210.824h105.412v21.082h-105.412v-21.082z",
				"M286.118 225.882h-123.482c-21.082 0-36.141 15.059-36.141 33.129v644.518c0 21.082 15.059 36.141 36.141 36.141h126.494c21.082 0 36.141-15.059 36.141-36.141v-644.518c-3.012-18.071-18.071-33.129-39.153-33.129zM867.388 225.882h-39.153v237.929c0 24.094-21.082 45.176-45.176 45.176h-304.188c-24.094 0-45.176-21.082-45.176-45.176v-210.824c0-9.035 3.012-18.071 9.035-27.106h-45.176c-18.071 0-30.118 15.059-30.118 30.118v653.553c0 18.071 15.059 30.118 30.118 30.118h472.847c18.071 0 30.118-15.059 30.118-30.118v-653.553c-3.012-18.071-15.059-30.118-33.129-30.118zM542.118 849.318c0 9.035-9.035 18.071-18.071 18.071h-66.259c-9.035 0-18.071-9.035-18.071-18.071v-57.224c0-9.035 9.035-18.071 18.071-18.071h66.259c9.035 0 18.071 9.035 18.071 18.071v57.224zM542.118 725.835c0 9.035-9.035 18.071-18.071 18.071h-66.259c-9.035 0-18.071-9.035-18.071-18.071v-57.224c0-9.035 9.035-18.071 18.071-18.071h66.259c9.035 0 18.071 9.035 18.071 18.071v57.224zM542.118 605.365c0 9.035-9.035 18.071-18.071 18.071h-66.259c-9.035 0-18.071-9.035-18.071-18.071v-57.224c0-9.035 9.035-18.071 18.071-18.071h66.259c9.035 0 18.071 9.035 18.071 18.071v57.224zM683.671 849.318c0 9.035-9.035 18.071-18.071 18.071h-66.259c-9.035 0-18.071-9.035-18.071-18.071v-57.224c0-9.035 9.035-18.071 18.071-18.071h66.259c9.035 0 18.071 9.035 18.071 18.071v57.224zM683.671 725.835c0 9.035-9.035 18.071-18.071 18.071h-66.259c-9.035 0-18.071-9.035-18.071-18.071v-57.224c0-9.035 9.035-18.071 18.071-18.071h66.259c9.035 0 18.071 9.035 18.071 18.071v57.224zM683.671 605.365c0 9.035-9.035 18.071-18.071 18.071h-66.259c-9.035 0-18.071-9.035-18.071-18.071v-57.224c0-9.035 9.035-18.071 18.071-18.071h66.259c9.035 0 18.071 9.035 18.071 18.071v57.224zM825.224 849.318c0 9.035-9.035 18.071-18.071 18.071h-66.259c-9.035 0-18.071-9.035-18.071-18.071v-57.224c0-9.035 9.035-18.071 18.071-18.071h66.259c9.035 0 18.071 9.035 18.071 18.071v57.224zM825.224 725.835c0 9.035-9.035 18.071-18.071 18.071h-66.259c-9.035 0-18.071-9.035-18.071-18.071v-57.224c0-9.035 9.035-18.071 18.071-18.071h66.259c9.035 0 18.071 9.035 18.071 18.071v57.224zM825.224 605.365c0 9.035-9.035 18.071-18.071 18.071h-66.259c-9.035 0-18.071-9.035-18.071-18.071v-57.224c0-9.035 9.035-18.071 18.071-18.071h66.259c9.035 0 18.071 9.035 18.071 18.071v57.224z",
				"M822.212 129.506c-3.012-21.082-21.082-36.141-42.165-36.141h-177.694c-12.047 0-24.094 6.024-33.129 15.059l-111.435 111.435c-9.035 9.035-15.059 21.082-15.059 33.129v201.788c0 24.094 21.082 45.176 45.176 45.176h295.153c24.094 0 45.176-21.082 45.176-45.176v-316.235c-6.024-3.012-6.024-6.024-6.024-9.035zM804.141 460.8c0 12.047-9.035 21.082-21.082 21.082h-304.188c-12.047 0-21.082-9.035-21.082-21.082v-204.8h120.471c3.012 0 9.035 0 12.047-3.012 6.024 0 12.047-3.012 12.047-9.035 3.012-3.012 3.012-6.024 3.012-12.047v-120.471h177.694c9.035 0 15.059 6.024 18.071 12.047 0 3.012 3.012 6.024 3.012 9.035v328.282z"
			],
			"grid": 0,
			"tags": [
				"promise_icon_fax01"
			],
			"defaultCode": 59707
		},
		{
			"paths": [
				"M807.153 734.871c-3.012-30.118-12.047-57.224-24.094-75.294-18.071-30.118-45.176-48.188-69.271-60.235s-48.188-18.071-63.247-24.094c-9.035-3.012-21.082-9.035-30.118-15.059-3.012-3.012-6.024-6.024-9.035-9.035s-3.012-3.012-3.012-3.012c0-6.024 0-12.047 0-18.071 48.188 0 84.329-15.059 108.424-30.118 12.047-9.035 21.082-18.071 30.118-27.106 3.012-3.012 6.024-9.035 9.035-12.047s3.012-9.035 3.012-15.059c0-3.012 0-6.024 0-9.035s-3.012-6.024-6.024-9.035c-9.035-9.035-21.082-18.071-30.118-39.153s-18.071-51.2-18.071-99.388c0-51.2-18.071-102.4-51.2-141.553s-81.318-66.259-138.541-66.259c-57.224 0-105.412 27.106-138.541 66.259s-51.2 90.353-51.2 141.553c0 45.176-9.035 78.306-18.071 99.388s-21.082 33.129-30.118 39.153c-3.012 6.024-6.024 9.035-6.024 12.047s0 6.024 0 9.035 0 9.035 3.012 15.059 9.035 15.059 18.071 24.094c21.082 21.082 63.247 45.176 129.506 45.176 0 6.024 0 12.047 0 18.071 0 0 0 0-3.012 3.012s-9.035 9.035-15.059 12.047c-6.024 3.012-15.059 9.035-24.094 9.035-9.035 3.012-24.094 6.024-39.153 12.047-24.094 9.035-51.2 21.082-72.282 45.176-24.094 24.094-42.165 57.224-45.176 102.4l-9.035 18.071h593.318l0-18.071z",
				"M879.435 906.541c0 18.071-15.059 33.129-33.129 33.129h-668.612c-18.071 0-33.129-15.059-33.129-33.129v-27.106c0-18.071 15.059-33.129 33.129-33.129h671.624c18.071 0 33.129 15.059 33.129 33.129v27.106z"
			],
			"grid": 0,
			"tags": [
				"promise_icon_shop03"
			],
			"defaultCode": 59706
		},
		{
			"paths": [
				"M834.259 84.329h-644.518c-33.129 0-33.129 30.118-33.129 3.012v774.024c0 60.235 15.059 75.294 33.129 75.294h647.529c18.071 0 33.129-15.059 33.129-33.129v-786.071c-3.012-18.071-18.071-33.129-36.141-33.129v0zM252.988 195.765c0-6.024 6.024-12.047 12.047-12.047h496.941c6.024 0 12.047 6.024 12.047 12.047v268.047c0 6.024-6.024 12.047-12.047 12.047h-499.953c-6.024 0-12.047-6.024-12.047-12.047v-268.047zM439.718 825.224c0 6.024-6.024 12.047-12.047 12.047h-126.494c-6.024 0-12.047-6.024-12.047-12.047v-195.765c0-6.024 6.024-12.047 12.047-12.047h126.494c6.024 0 12.047 6.024 12.047 12.047v195.765zM274.071 578.259h-15.059c-6.024 0-12.047-6.024-12.047-12.047v-30.118c0-6.024 6.024-12.047 12.047-12.047h213.835c6.024 0 12.047 6.024 12.047 12.047v30.118c0 6.024-6.024 12.047-12.047 12.047h-15.059zM789.082 593.318c0 6.024-3.012 9.035-9.035 9.035h-246.965c-3.012 0-9.035-3.012-9.035-9.035v-57.224c0-6.024 3.012-9.035 9.035-9.035h246.965c3.012 0 9.035 3.012 9.035 9.035v57.224zM789.082 653.553c0 6.024-3.012 12.047-9.035 12.047h-243.953c-3.012 0-9.035-6.024-9.035-12.047v-3.012c0-6.024 3.012-12.047 9.035-12.047h243.953c3.012 0 9.035 6.024 9.035 15.059v0zM789.082 710.776c0 6.024-3.012 12.047-9.035 12.047h-243.953c-3.012 0-9.035-6.024-9.035-12.047v-3.012c0-6.024 3.012-12.047 9.035-12.047h243.953c3.012 0 9.035 6.024 9.035 15.059v0zM789.082 768c0 6.024-3.012 12.047-9.035 12.047h-243.953c-3.012 0-9.035-6.024-9.035-12.047v-3.012c0-6.024 3.012-12.047 9.035-12.047h243.953c3.012 0 9.035 6.024 9.035 15.059v0zM789.082 825.224c0 6.024-3.012 12.047-9.035 12.047h-243.953c-3.012 0-9.035-6.024-9.035-12.047v-3.012c0-6.024 3.012-12.047 9.035-12.047h243.953c3.012 0 9.035 6.024 9.035 15.059v0z"
			],
			"grid": 0,
			"tags": [
				"promise_icon_machine01"
			],
			"defaultCode": 59708
		},
		{
			"paths": [
				"M430.682 939.671h159.624v-460.8h298.165v-126.494h-755.953v126.494h298.165v460.8zM891.482 210.824v-126.494h-758.965v126.494h758.965z"
			],
			"grid": 0,
			"tags": [
				"promise_icon_postal01"
			],
			"defaultCode": 59709
		},
		{
			"paths": [
				"M719.812 84.329h-415.624c-18.071 0-33.129 15.059-33.129 36.141v783.059c0 18.071 15.059 33.129 33.129 33.129h415.624c18.071 0 33.129-15.059 33.129-33.129v-783.059c0-21.082-15.059-36.141-33.129-36.141v0zM512 114.447c15.059 0 27.106 12.047 27.106 27.106s-12.047 27.106-27.106 27.106c-15.059 0-27.106-12.047-27.106-27.106 3.012-15.059 12.047-27.106 27.106-27.106v0zM515.012 909.553c-21.082 0-36.141-15.059-36.141-36.141s15.059-36.141 36.141-36.141c21.082 0 36.141 15.059 36.141 36.141-3.012 21.082-18.071 36.141-36.141 36.141v0zM710.776 783.059c0 9.035-9.035 18.071-18.071 18.071h-364.424c-9.035 0-18.071-9.035-18.071-18.071v-572.235c0-9.035 9.035-18.071 18.071-18.071h364.424c9.035 0 18.071 9.035 18.071 18.071v572.235zM710.776 783.059z"
			],
			"grid": 0,
			"tags": [
				"promise_icon_sp01"
			],
			"defaultCode": 59710
		},
		{
			"paths": [
				"M870.4 560.188c-39.153 0-69.271 30.118-69.271 69.271v174.682h-578.259v-174.682c0-39.153-30.118-69.271-69.271-69.271s-69.271 30.118-69.271 69.271v243.953c0 39.153 30.118 69.271 69.271 69.271h716.8c39.153 0 69.271-30.118 69.271-69.271v-243.953c-0-39.153-30.118-69.271-69.271-69.271v0zM870.4 560.188z",
				"M367.435 394.541l75.294-75.294v256c0 39.153 30.118 69.271 69.271 69.271s69.271-30.118 69.271-69.271v-256l75.294 75.294c12.047 12.047 30.118 21.082 48.188 21.082s36.141-6.024 48.188-21.082c27.106-27.106 27.106-69.271 0-96.376l-192.753-192.753c-27.106-27.106-69.271-27.106-96.376 0l-192.753 192.753c-27.106 27.106-27.106 69.271 0 96.376s69.271 27.106 96.376-0v0zM367.435 394.541z"
			],
			"grid": 0,
			"tags": [
				"promise_icon_upload01"
			],
			"defaultCode": 59711
		},
		{
			"paths": [
				"M813.176 873.412h-656.565v-656.565h484.894l39.153-66.259h-524.047c-36.141 0-66.259 30.118-66.259 66.259v656.565c0 36.141 30.118 66.259 66.259 66.259h656.565c36.141 0 66.259-30.118 66.259-66.259v-433.694l-66.259 105.412v328.282zM813.176 873.412z",
				"M924.612 93.365c-9.035-6.024-18.071-6.024-24.094-6.024-15.059 0-30.118 6.024-39.153 21.082l-358.4 512-138.541-156.612c-18.071-18.071-48.188-15.059-66.259 3.012s-15.059 48.188 3.012 66.259l165.647 189.741 3.012 3.012 3.012 6.024h3.012l3.012 3.012 9.035 3.012h3.012l15.059 3.012c12.047 0 24.094-3.012 33.129-15.059l3.012-6.024 391.529-563.2c18.071-21.082 12.047-48.188-9.035-63.247v0zM924.612 93.365z"
			],
			"grid": 0,
			"tags": [
				"promise_icon_check03"
			],
			"defaultCode": 59704
		},
		{
			"paths": [
				"M798.118 84.329h-569.224c-78.306 0-141.553 63.247-141.553 141.553v569.224c0 78.306 63.247 141.553 141.553 141.553h569.224c78.306 0 141.553-63.247 141.553-141.553v-566.212c0-81.318-63.247-144.565-141.553-144.565zM707.765 749.929c-15.059 18.071-129.506 132.518-301.176-135.529-180.706-283.106-72.282-361.412-24.094-379.482v0c0 0 0 0 3.012 0 0 0 3.012 0 3.012 0s0 0 3.012 0c6.024-3.012 12.047-3.012 12.047-3.012s0 0 0 0c30.118-6.024 60.235 6.024 66.259 33.129l9.035 63.247c6.024 33.129-18.071 72.282-57.224 87.341h-3.012c21.082 72.282 63.247 153.6 141.553 225.882l6.024-6.024c30.118-27.106 78.306-33.129 105.412-12.047l45.176 39.153c21.082 24.094 21.082 60.235-9.035 87.341z"
			],
			"grid": 0,
			"tags": [
				"promise_icon_phone02"
			],
			"defaultCode": 59705
		},
		{
			"paths": [
				"M683.671 409.6c-18.071 0-39.153 3.012-57.224 6.024v-313.224h-542.118v536.094h343.341c0-9.035 3.012-15.059 3.012-24.094-3.012 15.059-6.024 33.129-6.024 48.188 0 141.553 114.447 256 256 256s256-114.447 256-256c3.012-138.541-111.435-252.988-252.988-252.988zM518.024 150.588h60.235v165.647h-60.235v-165.647zM397.553 150.588h60.235v165.647h-60.235v-165.647zM277.082 150.588h60.235v165.647h-60.235v-165.647zM156.612 150.588h60.235v165.647h-60.235v-165.647zM240.941 593.318h-114.447v-256h457.788v87.341c0 0 0 0 0 0-33.129 12.047-63.247 33.129-87.341 57.224v-51.2h-256v162.635zM358.4 593.318h-96.376v-141.553h96.376v141.553zM379.482 593.318v-141.553h96.376v60.235c-18.071 24.094-33.129 51.2-39.153 81.318h-57.224zM683.671 882.447c-120.471 0-216.847-96.376-216.847-216.847s96.376-216.847 216.847-216.847c120.471 0 216.847 96.376 216.847 216.847s-96.376 216.847-216.847 216.847zM734.871 551.153l-51.2 75.294-51.2-75.294h-42.165l54.212 84.329h-45.176v33.129h66.259v33.129h-66.259v33.129h66.259v66.259h33.129v-66.259h66.259v-33.129h-66.259v-33.129h66.259v-36.141h-48.188l57.224-84.329h-39.153z"
			],
			"grid": 0,
			"tags": [
				"promise_icon_yen07"
			],
			"defaultCode": 59702
		},
		{
			"paths": [
				"M512 84.329c-234.918 0-427.671 192.753-427.671 427.671s189.741 427.671 427.671 427.671 427.671-192.753 427.671-427.671c0-234.918-192.753-427.671-427.671-427.671zM512 876.424c-198.776 0-361.412-162.635-361.412-364.424 0-198.776 162.635-361.412 361.412-361.412 201.788 0 364.424 162.635 364.424 364.424 0 198.776-162.635 361.412-364.424 361.412zM427.671 515.012l-48.188 72.282-48.188-72.282h-39.153l54.212 78.306h-45.176v33.129h63.247v33.129h-63.247v33.129h63.247v60.235h33.129v-63.247h63.247v-33.129h-63.247v-33.129h63.247v-33.129h-45.176l54.212-78.306h-42.165zM379.482 343.341l-48.188-72.282h-39.153l54.212 78.306h-45.176v33.129h63.247v33.129h-63.247v33.129h63.247v63.247h33.129v-63.247h63.247v-33.129h-63.247v-33.129h63.247v-33.129h-45.176l54.212-78.306h-39.153l-51.2 72.282zM692.706 515.012l-48.188 72.282-48.188-72.282h-39.153l54.212 78.306h-45.176v33.129h63.247v33.129h-63.247v33.129h63.247v63.247h33.129v-63.247h60.235v-33.129h-63.247v-33.129h63.247v-33.129h-45.176l54.212-78.306h-39.153zM644.518 343.341l-48.188-72.282h-39.153l54.212 78.306h-45.176v33.129h63.247v33.129h-63.247v33.129h63.247v63.247h33.129v-63.247h60.235v-33.129h-63.247v-33.129h63.247v-33.129h-45.176l54.212-78.306h-39.153l-48.188 72.282z"
			],
			"grid": 0,
			"tags": [
				"promise_icon_yen08"
			],
			"defaultCode": 59703
		},
		{
			"paths": [
				"M84.329 153.6v689.694h852.329v-689.694h-852.329zM159.624 228.894h204.8v168.659h-204.8v-168.659zM873.412 786.071h-722.824v-328.282h722.824v328.282z",
				"M358.4 581.271v204.8h27.106v-183.718h108.424v183.718h27.106v-183.718h111.435v183.718h24.094v-204.8z"
			],
			"grid": 0,
			"tags": [
				"promise_icon_shop02"
			],
			"defaultCode": 59701
		},
		{
			"paths": [
				"M545.129 894.494c-96.376-60.235-198.776-237.929-243.953-385.506-45.176-144.565-42.165-322.259 21.082-361.412 81.318-54.212 123.482-105.412 183.718 0 60.235 108.424 57.224 108.424 0 150.588-60.235 42.165-81.318 45.176-102.4 42.165 3.012 117.459 63.247 274.071 162.635 385.506 30.118-39.153 51.2-63.247 102.4-21.082 60.235 54.212 69.271 87.341 81.318 105.412 12.047 21.082 12.047 36.141-21.082 63.247-30.118 27.106-51.2 42.165-81.318 63.247-18.071 12.047-72.282-24.094-102.4-42.165z"
			],
			"grid": 0,
			"tags": [
				"promise_icon_phone01"
			],
			"defaultCode": 59700
		},
		{
			"paths": [
				"M499.953 84.329c147.576 0 292.141 69.271 292.141 231.906 0 150.588-171.671 207.812-207.812 262.024-27.106 39.153-18.071 96.376-93.365 96.376-48.188 0-75.294-39.153-75.294-78.306 0-138.541 201.788-168.659 201.788-283.106 0-63.247-42.165-99.388-111.435-99.388-147.576 0-90.353 153.6-201.788 153.6-39.153 0-75.294-24.094-75.294-69.271 3.012-111.435 132.518-213.835 271.059-213.835v0zM493.929 749.929c51.2 0 93.365 42.165 93.365 93.365s-42.165 93.365-93.365 93.365c-51.2 0-93.365-42.165-93.365-93.365s42.165-93.365 93.365-93.365v0zM493.929 749.929z"
			],
			"grid": 0,
			"tags": [
				"promise_icon_qt02"
			],
			"defaultCode": 59698
		},
		{
			"paths": [
				"M900.518 382.494l-234.918-21.082c-15.059 0-27.106-12.047-33.129-24.094l-84.329-204.8c-12.047-33.129-60.235-33.129-75.294 0l-81.318 204.8c-6.024 15.059-18.071 24.094-33.129 24.094l-237.929 21.082c-36.141 3.012-48.188 48.188-24.094 69.271l177.694 156.612c12.047 9.035 15.059 24.094 12.047 39.153l-54.212 216.847c-9.035 33.129 30.118 63.247 60.235 45.176l195.765-114.447c12.047-6.024 27.106-6.024 42.165 0l195.765 114.447c30.118 18.071 69.271-9.035 60.235-45.176l-51.2-216.847c-3.012-15.059 0-30.118 12.047-39.153l177.694-156.612c27.106-21.082 12.047-66.259-24.094-69.271v0zM900.518 382.494z"
			],
			"grid": 0,
			"tags": [
				"promise_icon_star01"
			],
			"defaultCode": 59699
		},
		{
			"paths": [
				"M807.153 114.447v638.494l-301.176 186.729-298.165-186.729v-638.494l301.176 186.729 298.165-186.729zM807.153 54.212c-12.047 0-21.082 3.012-33.129 9.035l-268.047 168.659-268.047-168.659c-9.035-6.024-21.082-9.035-30.118-9.035s-21.082 3.012-30.118 9.035c-18.071 12.047-30.118 30.118-30.118 51.2v638.494c0 21.082 12.047 39.153 27.106 51.2l301.176 186.729c9.035 6.024 21.082 9.035 33.129 9.035s21.082-3.012 33.129-9.035l301.176-186.729c18.071-12.047 27.106-30.118 27.106-51.2v-638.494c0-21.082-12.047-42.165-30.118-51.2-12.047-6.024-24.094-9.035-33.129-9.035v0z",
				"M536.094 295.153l249.976-156.612v590.306l-249.976 156.612z",
				"M755.953 192.753v518.024l-189.741 117.459v-515.012l189.741-120.471zM816.188 84.329l-310.212 195.765v659.576l310.212-192.753v-662.588z"
			],
			"grid": 0,
			"tags": [
				"promise_icon_beginner01"
			],
			"defaultCode": 59697
		},
		{
			"paths": [
				"M126.494 481.882l93.365-93.365 418.635 424.659-93.365 93.365-418.635-424.659z",
				"M578.259 939.671l-93.365-93.365 322.259-761.976 90.353 96.376-319.247 758.965z"
			],
			"grid": 0,
			"tags": [
				"promise_icon_check02"
			],
			"defaultCode": 59696
		},
		{
			"paths": [
				"M418.635 783.059l180.706-138.541c21.082-15.059 54.212-9.035 60.235 21.082l3.012 9.035c3.012 6.024 6.024 12.047 12.047 15.059 21.082 9.035 42.165 9.035 42.165 9.035 12.047 0 27.106 3.012 45.176 3.012-21.082-48.188-54.212-69.271-84.329-78.306-9.035-3.012-21.082-6.024-30.118-9.035-30.118-9.035-60.235-15.059-81.318-24.094-12.047-3.012-18.071-6.024-21.082-9.035 0 0 0 0 0-3.012 0 0 0-39.153 0-39.153 24.094-27.106 42.165-63.247 60.235-102.4 6.024-6.024 12.047-12.047 18.071-18.071 9.035-12.047 15.059-24.094 18.071-39.153 3.012-9.035 3.012-18.071 3.012-27.106 0-18.071-3.012-33.129-12.047-45.176-3.012-114.447-87.341-207.812-195.765-207.812s-195.765 93.365-195.765 207.812c-9.035 12.047-12.047 27.106-12.047 45.176 0 9.035 0 18.071 3.012 27.106 3.012 12.047 9.035 27.106 15.059 36.141s12.047 15.059 18.071 18.071c15.059 39.153 36.141 75.294 60.235 102.4 0 0 0 0 0 0s0 39.153 0 39.153c-3.012 3.012-12.047 6.024-24.094 9.035-21.082 6.024-51.2 15.059-81.318 24.094l-30.118 9.035c-48.188 15.059-105.412 60.235-105.412 198.776 0 3.012 0 3.012 0 6.024v27.106h346.353l-15.059-12.047c-12.047-12.047-12.047-42.165 3.012-54.212zM626.447 752.941v-57.224l-144.565 114.447 144.565 114.447v-57.224c286.118-12.047 313.224-141.553 313.224-171.671-33.129 78.306-274.071 60.235-313.224 57.224z"
			],
			"grid": 0,
			"tags": [
				"promise_icon_man02"
			],
			"defaultCode": 59687
		},
		{
			"paths": [
				"M84.329 84.329h852.329v171.671h-852.329v-171.671z",
				"M84.329 313.224v626.447h512v-343.341h171.671v340.329h171.671v-623.435h-855.341zM427.671 768h-171.671v-171.671h171.671v171.671z"
			],
			"grid": 0,
			"tags": [
				"promise_icon_shop01"
			],
			"defaultCode": 59688
		},
		{
			"paths": [
				"M599.341 322.259l-84.329 123.482-84.329-123.482h-72.282l93.365 138.541h-75.294v54.212h108.424v54.212h-108.424v57.224h108.424v111.435h57.224v-111.435h111.435v-57.224h-111.435v-54.212h111.435v-54.212h-81.318l96.376-138.541z",
				"M512 84.329c-234.918 0-427.671 192.753-427.671 427.671s192.753 427.671 427.671 427.671 427.671-192.753 427.671-427.671-192.753-427.671-427.671-427.671zM512 876.424c-198.776 0-361.412-162.635-361.412-364.424 0-198.776 162.635-361.412 361.412-361.412 201.788 0 364.424 162.635 364.424 364.424 0 198.776-162.635 361.412-364.424 361.412z"
			],
			"grid": 0,
			"tags": [
				"promise_icon_yen06"
			],
			"defaultCode": 59689
		},
		{
			"paths": [
				"M186.729 403.576v18.071h54.212c39.153 0 81.318 9.035 117.459 27.106v-21.082c-36.141-15.059-78.306-27.106-117.459-27.106h-54.212z",
				"M186.729 469.835v18.071h54.212c39.153 0 81.318 9.035 117.459 27.106v-21.082c-36.141-15.059-78.306-24.094-117.459-24.094h-54.212z",
				"M186.729 536.094v18.071h54.212c39.153 0 81.318 9.035 117.459 27.106v-21.082c-36.141-15.059-78.306-27.106-117.459-27.106h-54.212z",
				"M186.729 602.353v18.071h54.212c39.153 0 81.318 9.035 117.459 27.106v-21.082c-33.129-15.059-75.294-24.094-114.447-24.094h-57.224z",
				"M807.153 204.8l-78.306 78.306c-24.094 0-63.247 0-105.412 0-39.153 0-78.306 9.035-114.447 24.094-30.118 12.047-57.224 30.118-78.306 51.2-21.082-21.082-48.188-39.153-78.306-51.2-36.141-15.059-75.294-24.094-114.447-24.094h-96.376c-24.094 0-39.153 0-39.153 0h-18.071v481.882h18.071c0 0 15.059 0 39.153 0h93.365c33.129 0 69.271 9.035 102.4 21.082 30.118 12.047 57.224 33.129 75.294 51.2 0 0 12.047 15.059 12.047 15.059s3.012 3.012 3.012 3.012c0 0 3.012 0 3.012-3.012 0 0 12.047-12.047 12.047-15.059 18.071-21.082 48.188-39.153 75.294-51.2 33.129-15.059 66.259-21.082 102.4-21.082 72.282 0 132.518 0 132.518 0h18.071v-334.306l42.165-39.153c0 0 3.012-3.012 3.012-3.012s0 0 3.012-3.012l84.329-84.329c0 0 0 0 0 0l-96.376-96.376c0 0 0 0 0 0zM412.612 792.094c-18.071-15.059-39.153-27.106-63.247-36.141-36.141-15.059-75.294-24.094-114.447-24.094h-114.447v-412.612h117.459c33.129 0 69.271 9.035 102.4 21.082 30.118 12.047 57.224 30.118 75.294 51.2v400.565zM740.894 731.859h-117.459c-39.153 0-78.306 9.035-114.447 24.094-24.094 9.035-45.176 21.082-63.247 36.141v-400.565c18.071-21.082 45.176-39.153 75.294-51.2 33.129-15.059 66.259-21.082 102.4-21.082h72.282l-141.553 141.553c0 0 0 0 0 0l-42.165 135.529c0 0 0 0 0 0l135.529-42.165c0 0 3.012 0 3.012 0s0 0 3.012-3.012l87.341-87.341v268.047zM611.388 545.129c0 0 0 0 0 0l-69.271 21.082c0 0 0 0 0 0l21.082-69.271c0 0 0 0 0 0l48.188 48.188z",
				"M930.635 219.859l-39.153-39.153c-12.047-12.047-27.106-12.047-39.153 0l-21.082 21.082c0 0 0 0 0 0l78.306 78.306c0 0 0 0 0 0l21.082-21.082c12.047-12.047 12.047-30.118 0-39.153z"
			],
			"grid": 0,
			"tags": [
				"promise_icon_note01"
			],
			"defaultCode": 59690
		},
		{
			"paths": [
				"M403.576 186.729c-174.682 0-319.247 141.553-319.247 319.247s141.553 319.247 319.247 319.247 319.247-144.565 319.247-319.247-144.565-319.247-319.247-319.247zM508.988 505.976h-84.329v42.165h84.329v42.165h-84.329v84.329h-42.165v-84.329h-84.329v-42.165h84.329v-42.165h-84.329v-42.165h48.188l-72.282-105.412h63.247l63.247 96.376 63.247-96.376h63.247l-72.282 105.412h51.2v42.165z",
				"M783.059 316.235l30.118-30.118v524.047c0 15.059 12.047 27.106 27.106 27.106s27.106-12.047 27.106-27.106v-524.047l30.118 30.118c6.024 6.024 12.047 9.035 18.071 9.035s12.047-3.012 18.071-9.035c9.035-9.035 9.035-27.106 0-36.141l-75.294-75.294c-9.035-9.035-27.106-9.035-36.141 0l-75.294 75.294c-9.035 9.035-9.035 27.106 0 36.141s24.094 9.035 36.141 0v0zM783.059 316.235z"
			],
			"grid": 0,
			"tags": [
				"promise_icon_yen04"
			],
			"defaultCode": 59691
		},
		{
			"paths": [
				"M764.988 572.235h-30.118v60.235h-63.247v30.118h63.247v63.247h30.118v-63.247h63.247v-30.118h-63.247v-60.235zM746.918 451.765c-12.047 0-24.094 0-36.141 3.012-24.094-150.588-153.6-268.047-310.212-268.047-174.682 0-316.235 141.553-316.235 316.235s141.553 316.235 316.235 316.235c69.271 0 135.529-24.094 186.729-63.247 36.141 51.2 93.365 84.329 159.624 84.329 105.412 0 192.753-87.341 192.753-192.753s-87.341-195.765-192.753-195.765zM505.976 460.8v42.165h-84.329v39.153h84.329v42.165h-84.329v84.329h-42.165v-84.329h-84.329v-42.165h84.329v-42.165h-84.329v-42.165h48.188l-69.271-105.412h63.247l63.247 93.365 63.247-93.365h63.247l-72.282 105.412h51.2zM746.918 804.141c-54.212 0-102.4-27.106-132.518-72.282 0 0 0 0 0 0-6.024-6.024-9.035-15.059-12.047-24.094 0-3.012-3.012-6.024-3.012-9.035-3.012-6.024-3.012-12.047-6.024-18.071 0-3.012 0-6.024-3.012-9.035-3.012-9.035-3.012-18.071-3.012-27.106s0-21.082 3.012-30.118c0-3.012 3.012-6.024 3.012-9.035 3.012-6.024 3.012-12.047 6.024-18.071 0-3.012 3.012-6.024 6.024-9.035 3.012-6.024 6.024-12.047 9.035-15.059s3.012-6.024 6.024-9.035 6.024-9.035 12.047-12.047c3.012-3.012 6.024-6.024 9.035-9.035s9.035-6.024 12.047-12.047c3.012-3.012 6.024-6.024 9.035-6.024 6.024-3.012 12.047-6.024 15.059-9.035s6.024-3.012 9.035-6.024c9.035-3.012 15.059-6.024 24.094-9.035 0 0 3.012 0 3.012 0 9.035-3.012 21.082-3.012 33.129-3.012 87.341 0 159.624 72.282 159.624 159.624s-72.282 156.612-159.624 156.612z"
			],
			"grid": 0,
			"tags": [
				"promise_icon_yen05"
			],
			"defaultCode": 59692
		},
		{
			"paths": [
				"M322.259 743.906h379.482v36.141h-379.482v-36.141z",
				"M322.259 596.329h379.482v36.141h-379.482v-36.141z",
				"M322.259 448.753h379.482v36.141h-379.482v-36.141z",
				"M524.047 301.176h180.706v36.141h-180.706v-36.141z",
				"M849.318 861.365v-698.729c0-6.024 0-9.035 0-12.047-6.024-36.141-39.153-63.247-75.294-63.247h-316.235c-24.094 0-45.176 9.035-60.235 24.094l-195.765 195.765c-15.059 15.059-24.094 39.153-24.094 60.235v493.929c0 42.165 36.141 78.306 78.306 78.306h518.024c39.153 0 75.294-36.141 75.294-78.306zM219.859 861.365v-481.882h207.812c6.024 0 12.047-3.012 18.071-6.024 9.035-3.012 15.059-9.035 18.071-18.071 3.012-6.024 6.024-12.047 6.024-18.071v-207.812h304.188c15.059 0 27.106 9.035 30.118 21.082 3.012 3.012 3.012 9.035 3.012 12.047v698.729c0 18.071-15.059 33.129-33.129 33.129h-521.035c-18.071-0-33.129-15.059-33.129-33.129z"
			],
			"grid": 0,
			"tags": [
				"promise_icon_doc03"
			],
			"defaultCode": 59693
		},
		{
			"paths": [
				"M228.894 530.071c9.035 45.176 57.224 153.6 156.612 252.988v54.212h355.388v-54.212l36.141-60.235c12.047-21.082 21.082-45.176 21.082-72.282v-183.718c0-15.059-18.071-33.129-45.176-36.141-21.082-3.012-39.153 0-48.188 9.035 0-15.059-18.071-33.129-45.176-36.141-18.071-3.012-36.141 0-45.176 6.024-3.012-15.059-21.082-30.118-45.176-33.129-21.082-3.012-39.153 0-51.2 9.035v0 0c0-6.024-27.106-265.035-27.106-268.047-6.024-45.176-81.318-39.153-81.318 6.024v430.682c0 6.024-3.012 9.035-9.035 9.035v0c0 0 0 0-3.012 0-15.059 0-48.188 0-78.306-48.188-3.012-6.024-9.035-12.047-12.047-18.071-30.118-42.165-87.341-18.071-78.306 33.129v0zM228.894 530.071z",
				"M385.506 918.588c0 12.047 9.035 21.082 21.082 21.082h316.235c12.047 0 21.082-9.035 21.082-21.082v-51.2h-358.4v51.2zM385.506 918.588z"
			],
			"grid": 0,
			"tags": [
				"promise_icon_hand01"
			],
			"defaultCode": 59694
		},
		{
			"paths": [
				"M448.753 798.118l-198.776-114.447 343.341-599.341 198.776 114.447-343.341 599.341z",
				"M231.906 939.671l-3.012-222.871 198.776 114.447-195.765 108.424z"
			],
			"grid": 0,
			"tags": [
				"promise_icon_pen02"
			],
			"defaultCode": 59695
		},
		{
			"paths": [
				"M912.565 825.224l-234.918-237.929c87.341-123.482 75.294-298.165-33.129-409.6-123.482-123.482-322.259-123.482-442.729 0-123.482 123.482-123.482 325.271 0 448.753 96.376 96.376 240.941 117.459 355.388 63.247l243.953 246.965 111.435-111.435zM274.071 551.153c-84.329-84.329-84.329-219.859 0-301.176 84.329-84.329 219.859-84.329 301.176 0 84.329 84.329 84.329 219.859 0 301.176s-216.847 81.318-301.176 0z"
			],
			"grid": 0,
			"tags": [
				"promise_icon_search01"
			],
			"defaultCode": 59686
		},
		{
			"paths": [
				"M921.6 921.6v0c0 0 0 0 0 0v0zM921.6 840.282l-328.282-328.282 328.282-328.282c24.094-24.094 24.094-60.235 0-81.318-24.094-24.094-60.235-24.094-81.318 0l-328.282 328.282-328.282-328.282c-24.094-24.094-60.235-24.094-81.318 0v0c-24.094 24.094-24.094 60.235 0 81.318l328.282 328.282-328.282 328.282c-24.094 24.094-24.094 60.235 0 81.318 24.094 24.094 60.235 24.094 81.318 0l328.282-328.282 328.282 328.282c24.094 24.094 60.235 24.094 81.318 0 24.094-21.082 24.094-60.235 0-81.318zM921.6 102.4c0 0 0 0 0 0v0 0z"
			],
			"grid": 0,
			"tags": [
				"promise_icon_close01"
			],
			"defaultCode": 59680
		},
		{
			"paths": [
				"M84.329 180.706v93.365h852.329v-93.365h-852.329zM84.329 560.188h852.329v-93.365h-852.329v93.365zM84.329 843.294h852.329v-93.365h-852.329v93.365z"
			],
			"grid": 0,
			"tags": [
				"promise_icon_menu01"
			],
			"defaultCode": 59681
		},
		{
			"paths": [
				"M512 939.671c234.918 0 427.671-189.741 427.671-427.671 0-234.918-189.741-427.671-427.671-427.671s-427.671 192.753-427.671 427.671c0 234.918 192.753 427.671 427.671 427.671zM578.259 307.2l42.165 42.165-165.647 162.635 165.647 165.647-42.165 42.165-207.812-207.812 207.812-204.8z"
			],
			"grid": 0,
			"tags": [
				"promise_icon_arw03l"
			],
			"defaultCode": 59682
		},
		{
			"paths": [
				"M512 84.329c-234.918 0-427.671 192.753-427.671 427.671s192.753 427.671 427.671 427.671c234.918 0 427.671-189.741 427.671-427.671s-192.753-427.671-427.671-427.671zM512 653.553l-204.8-204.8 42.165-42.165 165.647 165.647 165.647-165.647 42.165 42.165-210.824 204.8z"
			],
			"grid": 0,
			"tags": [
				"promise_icon_arw03b"
			],
			"defaultCode": 59683
		},
		{
			"paths": [
				"M512 84.329c-234.918 0-427.671 192.753-427.671 427.671s189.741 427.671 427.671 427.671 427.671-192.753 427.671-427.671c0-234.918-192.753-427.671-427.671-427.671zM445.741 716.8l-42.165-42.165 165.647-165.647-165.647-165.647 42.165-42.165 207.812 207.812-207.812 207.812z"
			],
			"grid": 0,
			"tags": [
				"promise_icon_arw03r"
			],
			"defaultCode": 59684
		},
		{
			"paths": [
				"M84.329 512c0 234.918 189.741 427.671 427.671 427.671 234.918 0 427.671-189.741 427.671-427.671s-192.753-427.671-427.671-427.671c-234.918 0-427.671 192.753-427.671 427.671zM716.8 578.259l-42.165 42.165-162.635-165.647-165.647 165.647-42.165-42.165 207.812-207.812 204.8 207.812z"
			],
			"grid": 0,
			"tags": [
				"promise_icon_arw03u"
			],
			"defaultCode": 59685
		},
		{
			"paths": [
				"M391.529 596.329l120.471-171.671 120.471 171.671h-240.941z"
			],
			"grid": 0,
			"tags": [
				"promise_icon_arw01u"
			],
			"defaultCode": 59679
		},
		{
			"paths": [
				"M427.671 391.529l171.671 120.471-171.671 120.471v-240.941z"
			],
			"grid": 0,
			"tags": [
				"promise_icon_arw01r"
			],
			"defaultCode": 59678
		},
		{
			"paths": [
				"M596.329 632.471l-171.671-120.471 171.671-120.471v240.941z"
			],
			"grid": 0,
			"tags": [
				"promise_icon_arw01l"
			],
			"defaultCode": 59677
		},
		{
			"paths": [
				"M632.471 427.671l-120.471 171.671-120.471-171.671h240.941z"
			],
			"grid": 0,
			"tags": [
				"promise_icon_arw01b"
			],
			"defaultCode": 59676
		},
		{
			"paths": [
				"M725.835 596.329l-171.671-168.659-42.165-42.165-213.835 210.824 42.165 45.176 171.671-171.671 171.671 171.671z"
			],
			"grid": 0,
			"tags": [
				"promise_icon_arw02u"
			],
			"defaultCode": 59675
		},
		{
			"paths": [
				"M641.506 512l-213.835-213.835-42.165 42.165 168.659 171.671-168.659 171.671 42.165 42.165 168.659-171.671z"
			],
			"grid": 0,
			"tags": [
				"promise_icon_arw02r"
			],
			"defaultCode": 59674
		},
		{
			"paths": [
				"M725.835 427.671l-42.165-42.165-171.671 168.659-171.671-168.659-42.165 42.165 171.671 168.659 42.165 45.176 42.165-45.176z"
			],
			"grid": 0,
			"tags": [
				"promise_icon_arw02b"
			],
			"defaultCode": 59673
		},
		{
			"paths": [
				"M641.506 340.329l-45.176-42.165-168.659 171.671-42.165 42.165 42.165 42.165 168.659 171.671 45.176-42.165-171.671-171.671z"
			],
			"grid": 0,
			"tags": [
				"promise_icon_arw02l"
			],
			"defaultCode": 59672
		},
		{
			"paths": [
				"M798.118 84.329h-569.224c-78.306 0-141.553 63.247-141.553 141.553v569.224c0 78.306 63.247 141.553 141.553 141.553h569.224c78.306 0 141.553-63.247 141.553-141.553v-566.212c0-81.318-63.247-144.565-141.553-144.565zM707.765 530.071h-174.682v177.694h-42.165v-177.694h-174.682v-39.153h174.682v-168.659h42.165v168.659h174.682v39.153z"
			],
			"grid": 0,
			"tags": [
				"promise_icon_plus01"
			],
			"defaultCode": 59671
		},
		{
			"paths": [
				"M533.082 487.906v-168.659h-42.165v168.659h-174.682v42.165h174.682v174.682h42.165v-174.682h174.682v-42.165z"
			],
			"grid": 0,
			"tags": [
				"promise_icon_plus02"
			],
			"defaultCode": 59670
		},
		{
			"paths": [
				"M798.118 84.329h-569.224c-78.306 0-141.553 63.247-141.553 141.553v569.224c0 78.306 63.247 141.553 141.553 141.553h569.224c78.306 0 141.553-63.247 141.553-141.553v-566.212c0-81.318-63.247-144.565-141.553-144.565zM683.671 542.118c-33.129-3.012-57.224-3.012-105.412-3.012h-135.529c-45.176 0-72.282 0-102.4 3.012v-60.235c33.129 3.012 57.224 3.012 102.4 3.012h135.529c48.188 0 72.282 0 105.412-3.012v60.235z"
			],
			"grid": 0,
			"tags": [
				"promise_icon_minus01"
			],
			"defaultCode": 59669
		},
		{
			"paths": [
				"M578.259 484.894h-135.529c-48.188 0-72.282 0-102.4-3.012v60.235c33.129-3.012 57.224-3.012 102.4-3.012h135.529c48.188 0 72.282 0 105.412 3.012v-60.235c-30.118 3.012-54.212 3.012-105.412 3.012z"
			],
			"grid": 0,
			"tags": [
				"promise_icon_minus02"
			],
			"defaultCode": 59668
		},
		{
			"paths": [
				"M512 84.329c-234.918 0-427.671 192.753-427.671 427.671s192.753 427.671 427.671 427.671 427.671-192.753 427.671-427.671-192.753-427.671-427.671-427.671zM662.588 521.035h-120.471v60.235h120.471v60.235h-120.471v120.471h-60.235v-120.471h-120.471v-60.235h120.471v-60.235h-120.471v-60.235h72.282l-96.376-150.588h87.341l87.341 126.494 87.341-126.494h87.341l-96.376 150.588h72.282v60.235z"
			],
			"grid": 0,
			"tags": [
				"promise_icon_yen01"
			],
			"defaultCode": 59667
		},
		{
			"paths": [
				"M777.035 807.153l-168.659-132.518v78.306c-45.176 6.024-325.271 12.047-364.424-78.306 0 33.129 30.118 174.682 364.424 189.741v75.294l168.659-132.518z",
				"M512 84.329c-147.576 0-265.035 120.471-265.035 265.035 0 147.576 120.471 265.035 265.035 265.035 147.576 0 265.035-120.471 265.035-265.035s-117.459-265.035-265.035-265.035zM599.341 316.235v36.141h-72.282v36.141h72.282v33.129h-72.282v72.282h-36.141v-72.282h-72.282v-36.141h72.282v-36.141h-72.282v-36.141h39.153l-60.235-87.341h54.212l54.212 78.306 54.212-78.306h54.212l-60.235 87.341h45.176z"
			],
			"grid": 0,
			"tags": [
				"promise_icon_yen02"
			],
			"defaultCode": 59666
		},
		{
			"paths": [
				"M825.224 499.953l-81.318-81.318c0 0 0 0 0 0l-213.835-216.847c-9.035-9.035-27.106-9.035-36.141 0l-216.847 216.847c0 0 0 0 0 0l-81.318 81.318c-9.035 9.035-9.035 27.106 0 36.141 9.035 3.012 15.059 6.024 21.082 6.024s12.047-3.012 18.071-6.024l36.141-39.153v271.059c0 33.129 27.106 60.235 60.235 60.235h361.412c33.129 0 60.235-27.106 60.235-60.235v-271.059l36.141 36.141c6.024 6.024 12.047 6.024 18.071 6.024s12.047-3.012 18.071-6.024c9.035-9.035 9.035-24.094-0-33.129zM701.741 768c0 6.024-6.024 9.035-9.035 9.035h-358.4c-6.024 0-12.047-6.024-12.047-9.035v-322.259l189.741-189.741 189.741 189.741v322.259z",
				"M454.776 433.694h-57.224l63.247 96.376h-60.235v30.118h96.376v33.129h-96.376v33.129h96.376v96.376h30.118v-96.376h96.376v-33.129h-96.376v-33.129h96.376v-30.118h-60.235l63.247-96.376h-57.224l-57.224 84.329z"
			],
			"grid": 0,
			"tags": [
				"promise_icon_yen03"
			],
			"defaultCode": 59665
		},
		{
			"paths": [
				"M283.106 596.329l-66.259 96.376-66.259-96.376h-66.259l75.294 90.353h-57.224v60.235h99.388v30.118h-99.388v60.235h99.388v60.235h30.118v-60.235h111.435v-60.235h-111.435v-30.118h111.435v-60.235h-69.271l75.294-90.353z",
				"M668.612 126.494c-177.694 0-280.094 150.588-280.094 388.518 0 231.906 96.376 382.494 271.059 382.494v0c183.718 0 280.094-144.565 280.094-391.529 0-222.871-87.341-379.482-271.059-379.482zM662.588 807.153v0c-81.318 0-132.518-102.4-129.506-286.118 0-180.706 51.2-280.094 132.518-280.094 87.341 0 129.506 105.412 129.506 283.106s-45.176 283.106-132.518 283.106z"
			],
			"grid": 0,
			"tags": [
				"promise_icon_0yen"
			],
			"defaultCode": 59664
		},
		{
			"paths": [
				"M512 84.329c-234.918 0-427.671 192.753-427.671 427.671s192.753 427.671 427.671 427.671 427.671-192.753 427.671-427.671-192.753-427.671-427.671-427.671zM512 252.988c48.188 0 57.224 36.141 54.212 72.282l-27.106 262.024c-3.012 18.071-9.035 27.106-24.094 27.106-18.071 0-24.094-9.035-27.106-27.106l-27.106-262.024c-6.024-27.106-0-72.282 51.2-72.282zM512 771.012c-30.118 0-57.224-24.094-57.224-57.224 0-30.118 24.094-57.224 57.224-57.224 30.118 0 57.224 24.094 57.224 57.224s-27.106 57.224-57.224 57.224z"
			],
			"grid": 0,
			"tags": [
				"promise_icon_ex01"
			],
			"defaultCode": 59663
		},
		{
			"paths": [
				"M539.106 367.435h-114.447v159.624h114.447c54.212 0 84.329-30.118 84.329-81.318 0-24.094-6.024-42.165-21.082-57.224-12.047-15.059-30.118-21.082-63.247-21.082zM512 84.329c-234.918 0-427.671 192.753-427.671 427.671s189.741 427.671 427.671 427.671c234.918 0 427.671-189.741 427.671-427.671 0-234.918-192.753-427.671-427.671-427.671zM668.612 554.165c-30.118 30.118-69.271 42.165-126.494 42.165h-114.447v99.388c0 33.129 0 54.212 6.024 78.306h-87.341c3.012-24.094 6.024-45.176 6.024-78.306v-322.259c0-30.118 0-51.2-6.024-78.306 27.106 0 45.176 3.012 75.294 3.012h120.471c57.224 0 99.388 15.059 126.494 42.165 24.094 24.094 36.141 60.235 36.141 102.4 3.012 48.188-12.047 84.329-36.141 111.435z"
			],
			"grid": 0,
			"tags": [
				"promise_icon_pt01"
			],
			"defaultCode": 59662
		},
		{
			"paths": [
				"M939.671 512c0-234.918-189.741-427.671-427.671-427.671-234.918-0-427.671 192.753-427.671 427.671s192.753 427.671 427.671 427.671c90.353 0 174.682-30.118 243.953-78.306l180.706 78.306-78.306-180.706c51.2-72.282 81.318-156.612 81.318-246.965zM530.071 719.812h-90.353v-90.353h90.353v90.353zM590.306 505.976c-39.153 30.118-60.235 42.165-60.235 72.282v21.082h-90.353v-42.165c0-30.118 21.082-51.2 54.212-78.306 42.165-33.129 66.259-48.188 66.259-72.282 0-30.118-36.141-39.153-51.2-39.153-54.212 0-54.212 48.188-54.212 48.188h-99.388c3.012-30.118 3.012-39.153 24.094-69.271 39.153-51.2 105.412-57.224 138.541-57.224 96.376 0 144.565 54.212 144.565 111.435-0 45.176-21.082 69.271-72.282 105.412z"
			],
			"grid": 0,
			"tags": [
				"promise_icon_qt01"
			],
			"defaultCode": 59661
		},
		{
			"paths": [
				"M810.165 246.965l-33.129-3.012c-87.341-6.024-165.647-39.153-210.824-93.365l-54.212-66.259-54.212 66.259c-45.176 54.212-123.482 87.341-210.824 93.365l-69.271 6.024v313.224c0 45.176 12.047 87.341 36.141 123.482 75.294 132.518 240.941 222.871 265.035 237.929l33.129 18.071 33.129-18.071c30.118-15.059 301.176-162.635 301.176-361.412v-313.224l-36.141-3.012zM249.976 521.035c0-78.306 0-204.8 0-204.8 108.424-6.024 201.788-48.188 262.024-120.471v325.271h262.024v39.153c0 159.624-262.024 298.165-262.024 298.165v-337.318h-262.024z"
			],
			"grid": 0,
			"tags": [
				"promise_icon_shield01"
			],
			"defaultCode": 59660
		},
		{
			"paths": [
				"M283.106 234.918c15.059 0 30.118-12.047 30.118-30.118v-90.353c0-15.059-12.047-30.118-30.118-30.118-15.059 0-30.118 12.047-30.118 30.118v90.353c3.012 18.071 15.059 30.118 30.118 30.118z",
				"M512 234.918c15.059 0 30.118-12.047 30.118-30.118v-90.353c0-15.059-12.047-30.118-30.118-30.118-15.059 0-30.118 12.047-30.118 30.118v90.353c3.012 18.071 15.059 30.118 30.118 30.118z",
				"M740.894 234.918c15.059 0 30.118-12.047 30.118-30.118v-90.353c0-15.059-12.047-30.118-30.118-30.118-15.059 0-30.118 12.047-30.118 30.118v90.353c3.012 18.071 15.059 30.118 30.118 30.118z",
				"M798.118 159.624h-3.012v45.176c0 27.106-24.094 51.2-51.2 51.2s-51.2-24.094-51.2-51.2v-45.176h-126.494v45.176c0 27.106-24.094 51.2-51.2 51.2s-51.2-24.094-51.2-51.2v-45.176h-126.494v45.176c0 27.106-24.094 51.2-51.2 51.2s-54.212-21.082-54.212-51.2v-45.176h-6.024c-60.235 0-111.435 51.2-111.435 111.435v554.165c0 63.247 51.2 111.435 111.435 111.435h569.224c63.247 0 111.435-51.2 111.435-111.435v-554.165c3.012-60.235-48.188-111.435-108.424-111.435zM837.271 819.2v0c0 27.106-21.082 48.188-48.188 48.188h-554.165c-27.106 0-48.188-21.082-48.188-48.188v-415.624h650.541v415.624z",
				"M394.541 716.8c-24.094 0-48.188-9.035-57.224-15.059l-12.047 36.141c15.059 9.035 42.165 18.071 72.282 18.071 63.247 0 99.388-33.129 99.388-78.306 0-33.129-24.094-57.224-57.224-63.247v0c30.118-12.047 48.188-33.129 48.188-60.235 0-33.129-27.106-63.247-81.318-63.247-30.118 0-60.235 9.035-75.294 18.071l12.047 36.141c12.047-6.024 30.118-15.059 51.2-15.059 27.106 0 42.165 15.059 42.165 33.129 0 24.094-27.106 36.141-51.2 36.141h-21.082v33.129h21.082c30.118 0 57.224 12.047 57.224 42.165 3.012 21.082-12.047 42.165-48.188 42.165z",
				"M626.447 755.953v0c63.247 0 93.365-51.2 93.365-132.518 0-75.294-30.118-129.506-90.353-129.506s-93.365 54.212-93.365 132.518c0 75.294 30.118 129.506 90.353 129.506zM626.447 530.071c30.118 0 42.165 36.141 42.165 93.365 0 60.235-15.059 96.376-45.176 96.376v0c-27.106 0-45.176-33.129-42.165-96.376 3.012-60.235 18.071-93.365 45.176-93.365z"
			],
			"grid": 0,
			"tags": [
				"promise_icon_cal01"
			],
			"defaultCode": 59659
		},
		{
			"paths": [
				"M271.059 331.294v421.647h421.647v-421.647h-421.647zM662.588 722.824h-361.412v-361.412h361.412v361.412z",
				"M737.882 277.082c-18.071-12.047-42.165-9.035-54.212 9.035l-195.765 249.976-66.259-75.294c-12.047-15.059-39.153-18.071-54.212-6.024-18.071 12.047-21.082 36.141-6.024 51.2l129.506 150.588 256-328.282c12.047-15.059 9.035-39.153-9.035-51.2z"
			],
			"grid": 0,
			"tags": [
				"promise_icon_check01"
			],
			"defaultCode": 59658
		},
		{
			"paths": [
				"M277.082 644.518h325.271v30.118h-325.271v-30.118z",
				"M277.082 518.024h325.271v30.118h-325.271v-30.118z",
				"M277.082 394.541h325.271v30.118h-325.271v-30.118z",
				"M448.753 268.047h153.6v30.118h-153.6v-30.118z",
				"M728.847 746.918v-596.329c0-3.012 0-9.035 0-12.047-6.024-30.118-33.129-54.212-66.259-54.212h-268.047c-18.071 0-39.153 9.035-51.2 21.082l-168.659 168.659c-15.059 15.059-21.082 33.129-21.082 51.2v421.647c0 36.141 30.118 66.259 66.259 66.259h442.729c36.141 0 66.259-30.118 66.259-66.259zM189.741 746.918v-412.612h177.694c6.024 0 12.047 0 15.059-3.012 6.024-3.012 12.047-9.035 15.059-15.059s3.012-9.035 3.012-15.059v-177.694h262.024c12.047 0 21.082 6.024 27.106 18.071 3.012 3.012 3.012 6.024 3.012 12.047v593.318c0 15.059-12.047 30.118-30.118 30.118h-442.729c-15.059-3.012-30.118-15.059-30.118-30.118z",
				"M804.141 213.835h-45.176l3.012 36.141h42.165c15.059 0 30.118 12.047 30.118 30.118v593.318c0 15.059-12.047 30.118-30.118 30.118h-439.718c-12.047 0-21.082-6.024-27.106-18.071 0-3.012-3.012-6.024-3.012-12.047v-27.106h-36.141v27.106c0 3.012 0 9.035 0 12.047 6.024 30.118 33.129 54.212 66.259 54.212h442.729c36.141 0 66.259-30.118 66.259-66.259v-596.329c-3.012-36.141-33.129-63.247-69.271-63.247z"
			],
			"grid": 0,
			"tags": [
				"promise_icon_doc01"
			],
			"defaultCode": 59657
		},
		{
			"paths": [
				"M280.094 737.882h286.118c3.012-12.047 9.035-24.094 15.059-33.129h-301.176v33.129z",
				"M280.094 566.212h358.4v33.129h-358.4v-33.129z",
				"M280.094 427.671h358.4v33.129h-358.4v-33.129z",
				"M469.835 286.118h168.659v33.129h-168.659v-33.129z",
				"M213.835 849.318c-18.071 0-33.129-15.059-33.129-33.129v-454.776h195.765c21.082 0 39.153-18.071 39.153-39.153v-195.765h286.118c18.071 0 33.129 15.059 33.129 33.129v454.776c3.012 0 6.024 0 9.035 0 12.047 0 21.082 0 33.129 3.012v-457.788c0-39.153-33.129-72.282-72.282-72.282h-298.165c-21.082 0-42.165 9.035-57.224 24.094l-183.718 183.718c-15.059 15.059-24.094 36.141-24.094 57.224v466.824c0 39.153 33.129 72.282 72.282 72.282h364.424c-6.024-12.047-12.047-27.106-15.059-42.165l-349.365-0z",
				"M743.906 659.576c-78.306 0-138.541 63.247-138.541 138.541 0 78.306 63.247 138.541 138.541 138.541 78.306 0 138.541-63.247 138.541-138.541s-60.235-138.541-138.541-138.541zM825.224 758.965l-75.294 90.353c-6.024 6.024-12.047 9.035-18.071 9.035-9.035 0-15.059-3.012-21.082-6.024l-45.176-39.153c-3.012-3.012-6.024-6.024-6.024-12.047s0-9.035 3.012-12.047l6.024-6.024c3.012-3.012 6.024-6.024 12.047-6.024s9.035 0 12.047 6.024l39.153 36.141 75.294-72.282c3.012-3.012 12.047-3.012 15.059 0 6.024 3.012 6.024 9.035 3.012 12.047z"
			],
			"grid": 0,
			"tags": [
				"promise_icon_doc02"
			],
			"defaultCode": 59656
		},
		{
			"paths": [
				"M846.306 418.635h-63.247v-57.224c0-150.588-120.471-271.059-271.059-271.059s-271.059 120.471-271.059 271.059v57.224h-45.176c-3.012 0-15.059 12.047-15.059 15.059v499.953c0 3.012 12.047-6.024 15.059-6.024h647.529c3.012 0-3.012 9.035-3.012 6.024v-499.953c3.012-3.012 9.035-15.059 6.024-15.059zM331.294 361.412c0-51.2 21.082-99.388 54.212-132.518s81.318-54.212 135.529-54.212c51.2 0 90.353 21.082 126.494 54.212 33.129 33.129 45.176 78.306 45.176 132.518v57.224h-361.412v-57.224zM545.129 689.694l15.059 120.471h-78.306l15.059-120.471c-24.094-9.035-42.165-33.129-42.165-63.247 0-36.141 30.118-69.271 69.271-69.271s69.271 30.118 69.271 69.271c-3.012 30.118-21.082 54.212-48.188 63.247z"
			],
			"grid": 0,
			"tags": [
				"promise_icon_lock01"
			],
			"defaultCode": 59655
		},
		{
			"paths": [
				"M837.271 418.635h-45.176v-63.247c0-150.588-123.482-271.059-274.071-271.059s-274.071 123.482-274.071 274.071h78.306c0-60.235 24.094-99.388 57.224-135.529 33.129-33.129 81.318-57.224 135.529-57.224 51.2 0 99.388 21.082 135.529 54.212 33.129 33.129 54.212 81.318 54.212 132.518v63.247h-515.012c-3.012 0 0 9.035 0 12.047v499.953c0 3.012-3.012 0 0 0h647.529c3.012 0 15.059 3.012 15.059 0v-496.941c0-6.024-12.047-12.047-15.059-12.047zM539.106 686.682l15.059 123.482h-78.306l15.059-123.482c-24.094-9.035-42.165-36.141-42.165-63.247 0-36.141 30.118-69.271 69.271-69.271 36.141 0 69.271 30.118 69.271 69.271-6.024 30.118-24.094 54.212-48.188 63.247z"
			],
			"grid": 0,
			"tags": [
				"promise_icon_lock02"
			],
			"defaultCode": 59654
		},
		{
			"paths": [
				"M936.659 286.118c-3.012-18.071-12.047-36.141-24.094-48.188-3.012-3.012-6.024-6.024-9.035-9.035-21.082-21.082-51.2-33.129-84.329-33.129h-614.4c-33.129 0-63.247 12.047-84.329 33.129-3.012 3.012-6.024 6.024-9.035 9.035-12.047 12.047-21.082 30.118-24.094 48.188 0 6.024-3.012 15.059-3.012 21.082v409.6c0 15.059 3.012 30.118 9.035 45.176 6.024 12.047 15.059 24.094 24.094 33.129 3.012 3.012 6.024 6.024 9.035 6.024 21.082 15.059 48.188 27.106 75.294 27.106h617.412c30.118 0 54.212-9.035 75.294-27.106 3.012-3.012 6.024-3.012 9.035-6.024 9.035-9.035 18.071-21.082 24.094-33.129v0c6.024-15.059 9.035-27.106 9.035-45.176v-409.6c3.012-6.024 3.012-15.059 0-21.082zM162.635 268.047c12.047-9.035 24.094-15.059 42.165-15.059h617.412c15.059 0 30.118 6.024 42.165 15.059 3.012 3.012 3.012 3.012 6.024 6.024l-328.282 268.047c-9.035 6.024-21.082 12.047-30.118 12.047-12.047 0-21.082-3.012-30.118-12.047l-325.271-268.047c3.012 0 3.012-3.012 6.024-6.024zM144.565 716.8v-382.494l234.918 192.753-234.918 189.741c0 3.012 0 0 0 0zM819.2 771.012h-614.4c-9.035 0-21.082-3.012-30.118-6.024l246.965-201.788 24.094 18.071c18.071 15.059 42.165 24.094 66.259 24.094s48.188-9.035 66.259-24.094l24.094-18.071 246.965 201.788c-9.035 3.012-18.071 6.024-30.118 6.024zM879.435 716.8c0 0 0 3.012 0 0l-234.918-189.741 234.918-192.753v382.494z"
			],
			"grid": 0,
			"tags": [
				"promise_icon_mail01"
			],
			"defaultCode": 59653
		},
		{
			"paths": [
				"M764.988 265.035h-502.965c-15.059 0-27.106 12.047-27.106 27.106v337.318c0 15.059 12.047 27.106 27.106 27.106h165.647v51.2h-66.259v54.212h301.176v-54.212h-63.247v-51.2h165.647c15.059 0 27.106-12.047 27.106-27.106v-340.329c-3.012-12.047-15.059-24.094-27.106-24.094zM740.894 596.329h-457.788v-280.094h457.788v280.094z"
			],
			"grid": 0,
			"tags": [
				"promise_icon_pc01"
			],
			"defaultCode": 59652
		},
		{
			"paths": [
				"M361.412 855.341c0 0 0 0 3.012-3.012l325.271-325.271c3.012-3.012 3.012-3.012 3.012-3.012s3.012-3.012 3.012-3.012l171.671-171.671c0 0 0 0 0 0l-192.753-192.753c0 0 0 0 0 0l-171.671 171.671c-3.012 3.012-3.012 3.012-3.012 3.012s-3.012 3.012-3.012 3.012l-328.282 328.282c0 0 0 0 0 0l-84.329 277.082c0 0 0 0 0 0l271.059-81.318c3.012-3.012 6.024-3.012 6.024-3.012zM147.576 876.424l42.165-138.541c0 0 0 0 0 0l96.376 96.376c0 0 0 0 0 0l-138.541 42.165c0 0 0 0 0 0z",
				"M924.612 259.012c21.082-21.082 21.082-57.224 0-78.306l-81.318-78.306c-21.082-21.082-57.224-21.082-78.306 0l-39.153 39.153c0 0 0 0 0 0l156.612 156.612c0 0 0 0 0 0l42.165-39.153z"
			],
			"grid": 0,
			"tags": [
				"promise_icon_pen01"
			],
			"defaultCode": 59651
		},
		{
			"paths": [
				"M237.929 126.494v632.471h722.824v-632.471h-722.824zM870.4 668.612h-542.118v-361.412h542.118v361.412z",
				"M177.694 367.435h-90.353v542.118h542.118v-90.353h-451.765z"
			],
			"grid": 0,
			"tags": [
				"promise_icon_window01"
			],
			"defaultCode": 59650
		},
		{
			"paths": [
				"M906.541 939.671v-36.141c-3.012-156.612-66.259-207.812-120.471-225.882v0c-12.047-3.012-21.082-6.024-33.129-9.035-36.141-9.035-69.271-18.071-93.365-27.106-12.047-3.012-21.082-9.035-24.094-12.047 0 0 0 0 0-3.012 0 0 0-45.176 0-45.176 27.106-30.118 48.188-72.282 66.259-117.459 9.035-6.024 15.059-12.047 21.082-21.082 9.035-12.047 15.059-27.106 18.071-42.165 3.012-9.035 3.012-21.082 3.012-30.118 0-21.082-6.024-39.153-15.059-51.2 3.012-129.506-96.376-234.918-216.847-234.918s-216.847 105.412-219.859 234.918c-9.035 15.059-15.059 33.129-15.059 51.2 0 9.035 0 21.082 3.012 30.118 3.012 15.059 9.035 30.118 18.071 42.165 6.024 9.035 15.059 15.059 21.082 21.082 18.071 45.176 39.153 87.341 66.259 117.459 0 0 0 0 0 0s0 45.176 0 45.176c-6.024 3.012-12.047 6.024-27.106 12.047-24.094 9.035-57.224 18.071-90.353 27.106l-33.129 9.035c-54.212 15.059-117.459 66.259-120.471 225.882 0 3.012 0 3.012 0 6.024v30.118z"
			],
			"grid": 0,
			"tags": [
				"promise_icon_man01"
			],
			"defaultCode": 59649
		},
		{
			"paths": [
				"M888.471 915.576c-6.024-39.153-15.059-72.282-33.129-96.376-24.094-39.153-57.224-63.247-90.353-78.306s-63.247-24.094-81.318-30.118c-12.047-3.012-27.106-12.047-39.153-18.071-6.024-3.012-9.035-6.024-12.047-9.035 0-3.012 0-6.024 0-6.024 0-6.024 0-15.059 0-24.094 60.235-3.012 108.424-18.071 138.541-39.153 15.059-12.047 30.118-21.082 36.141-33.129 3.012-6.024 9.035-12.047 9.035-18.071 3.012-6.024 3.012-12.047 3.012-18.071 0-3.012 0-6.024-3.012-9.035 0-3.012-3.012-6.024-6.024-9.035-12.047-9.035-24.094-24.094-36.141-51.2s-21.082-66.259-21.082-126.494c0-66.259-24.094-132.518-66.259-180.706s-102.4-84.329-174.682-84.329c-72.282 0-132.518 33.129-174.682 84.329s-66.259 114.447-66.259 180.706c0 60.235-9.035 99.388-21.082 126.494s-27.106 42.165-36.141 51.2c-3.012 3.012-6.024 6.024-6.024 9.035s-3.012 6.024-3.012 9.035c0 6.024 3.012 12.047 3.012 18.071 3.012 9.035 12.047 18.071 21.082 30.118 27.106 27.106 81.318 57.224 165.647 57.224 0 9.035 0 15.059 0 24.094 0 0 0 3.012-3.012 6.024s-12.047 12.047-21.082 15.059c-9.035 6.024-21.082 9.035-30.118 12.047-12.047 3.012-30.118 9.035-51.2 18.071-30.118 12.047-63.247 27.106-93.365 57.224s-51.2 72.282-60.235 132.518l-3.012 21.082h758.965l-3.012-21.082z"
			],
			"grid": 0,
			"tags": [
				"promise_icon_woman01"
			],
			"defaultCode": 59648
		}
	],
	"colorThemes": [],
	"preferences": {
		"showGlyphs": true,
		"showCodes": true,
		"showQuickUse": true,
		"showQuickUse2": true,
		"showSVGs": true,
		"fontPref": {
			"prefix": "icon-",
			"metadata": {
				"fontFamily": "promiseicon",
				"majorVersion": 1,
				"minorVersion": 0
			},
			"metrics": {
				"emSize": 1024,
				"baseline": 6.25,
				"whitespace": 50
			},
			"showSelector": false,
			"showMetrics": true,
			"showMetadata": true,
			"showVersion": true
		},
		"imagePref": {
			"prefix": "icon-",
			"png": true,
			"useClassSelector": true,
			"color": 4473924,
			"bgColor": 16777215
		},
		"historySize": 100,
		"gridSize": 16,
		"showGrid": false
	},
	"IcoMoonType": "icon-set"
}